<?xml version="1.0" encoding="UTF-8" standalone="no"?>
<svg
   height="64"
   width="64"
   version="1.1"
   id="svg49"
   sodipodi:docname="krita.svg"
   inkscape:version="1.1.1 (3bf5ae0, 2021-09-20)"
   xmlns:inkscape="http://www.inkscape.org/namespaces/inkscape"
   xmlns:sodipodi="http://sodipodi.sourceforge.net/DTD/sodipodi-0.dtd"
   xmlns:xlink="http://www.w3.org/1999/xlink"
   xmlns="http://www.w3.org/2000/svg"
   xmlns:svg="http://www.w3.org/2000/svg"
   xmlns:rdf="http://www.w3.org/1999/02/22-rdf-syntax-ns#"
   xmlns:cc="http://creativecommons.org/ns#"
   xmlns:dc="http://purl.org/dc/elements/1.1/">
  <metadata
     id="metadata55">
    <rdf:RDF>
      <cc:Work
         rdf:about="">
        <dc:format>image/svg+xml</dc:format>
        <dc:type
           rdf:resource="http://purl.org/dc/dcmitype/StillImage" />
      </cc:Work>
    </rdf:RDF>
  </metadata>
  <defs
     id="defs53">
    <style
       type="text/css"
       id="style884" />
    <filter
       id="filter1057"
       x="-0.026999999"
       y="-0.026999999"
       width="1.054"
       height="1.054"
       color-interpolation-filters="sRGB">
      <feGaussianBlur
         stdDeviation="0.61875"
         id="feGaussianBlur886" />
    </filter>
    <linearGradient
       id="linearGradient1053"
       x1="-127"
       x2="-72"
       y1="60"
       y2="5"
       gradientTransform="matrix(0.26458,0,0,0.26458,34.792,-0.13493)"
       gradientUnits="userSpaceOnUse">
      <stop
         stop-color="#ff7d50"
         offset="0"
         id="stop889" />
      <stop
         stop-color="#ff4b5a"
         offset=".50594"
         id="stop891" />
      <stop
         stop-color="#ff509b"
         offset="1"
         id="stop893" />
    </linearGradient>
  </defs>
  <sodipodi:namedview
     pagecolor="#ffffff"
     bordercolor="#666666"
     borderopacity="1"
     objecttolerance="10"
     gridtolerance="10"
     guidetolerance="10"
     inkscape:pageopacity="0"
     inkscape:pageshadow="2"
     inkscape:window-width="1600"
     inkscape:window-height="842"
     id="namedview51"
     showgrid="false"
     inkscape:zoom="4.0364583"
     inkscape:cx="-12.263226"
     inkscape:cy="25.64129"
     inkscape:window-x="0"
     inkscape:window-y="24"
     inkscape:window-maximized="1"
     inkscape:current-layer="svg49"
     inkscape:pagecheckerboard="0" />
  <linearGradient
     id="a">
    <stop
       offset="0"
       stop-color="#fff"
       id="stop2" />
    <stop
       offset="1"
       stop-color="#ececec"
       id="stop4" />
  </linearGradient>
  <linearGradient
     id="b"
     gradientUnits="userSpaceOnUse"
     x1="399.57144"
     x2="399.57144"
     y1="545.79797"
     y2="517.79797"
     gradientTransform="matrix(1.6374666,0,0,1.6374666,-644.58023,-848.71937)">
    <stop
       offset="0"
       stop-color="#3889e9"
       id="stop7" />
    <stop
       offset="1"
       stop-color="#5ea5fb"
       id="stop9" />
  </linearGradient>
  <linearGradient
     id="c"
     gradientUnits="userSpaceOnUse"
     x1="-324.94363"
     x2="-328.20999"
     xlink:href="#a"
     y1="649.7406"
     y2="307.75275" />
  <linearGradient
     id="d"
     gradientUnits="userSpaceOnUse"
     x1="-321.1821"
     x2="-325.13223"
     xlink:href="#a"
     y1="656.02753"
     y2="242.4472" />
  <linearGradient
     id="e"
     gradientUnits="userSpaceOnUse"
     x1="-332.71527"
     x2="-330.3338"
     y1="668.85107"
     y2="219.94304">
    <stop
       offset="0"
       stop-color="#0bac83"
       id="stop14" />
    <stop
       offset="1"
       stop-color="#10da96"
       id="stop16" />
  </linearGradient>
  <circle
     cx="14.905728"
     cy="23.792919"
     fill="url(#b)"
     r="0"
     id="circle19"
     style="fill:url(#b);stroke-width:1.63746" />
  <style
     type="text/css"
     id="style916">.st0{opacity:0.15;fill:#45413C;}
	.st1{fill:#FFE500;}
	.st2{fill:#EBCB00;}
	.st3{fill:none;stroke:#45413C;stroke-linecap:round;stroke-linejoin:round;stroke-miterlimit:10;}
	.st4{fill:#FFAA54;}
	.st5{fill:#FF8A14;}
	.st6{fill:#FFB0CA;stroke:#45413C;stroke-linecap:round;stroke-linejoin:round;stroke-miterlimit:10;}
	.st7{fill:#FF87AF;stroke:#45413C;stroke-linecap:round;stroke-linejoin:round;stroke-miterlimit:10;}
	.st8{fill:#FFCC99;}
	.st9{fill:#FFFFFF;}
	.st10{fill:#F0F0F0;}
	.st11{fill:#BF8256;}
	.st12{fill:#915E3A;}
	.st13{fill:#DEA47A;}
	.st14{fill:#F0D5A8;}
	.st15{fill:#DEBB7E;}
	.st16{fill:#F7E5C6;}
	.st17{fill:#FF8A14;stroke:#45413C;stroke-linecap:round;stroke-linejoin:round;stroke-miterlimit:10;}
	.st18{fill:#FFF5E3;}
	.st19{fill:#FFF48C;}
	.st20{fill:#FFFACF;}
	.st21{fill:#FFFCE5;}
	.st22{fill:#FF87AF;}
	.st23{fill:#FFB0CA;}
	.st24{fill:#FFE500;stroke:#45413C;stroke-linecap:round;stroke-linejoin:round;stroke-miterlimit:10;}
	.st25{fill:#9CEB60;stroke:#45413C;stroke-linecap:round;stroke-linejoin:round;stroke-miterlimit:10;}
	.st26{fill:#FFFACF;stroke:#45413C;stroke-linecap:round;stroke-linejoin:round;stroke-miterlimit:10;}
	.st27{fill:#00F5BC;stroke:#45413C;stroke-linecap:round;stroke-linejoin:round;stroke-miterlimit:10;}
	.st28{fill:#BF8256;stroke:#45413C;stroke-linecap:round;stroke-linejoin:round;stroke-miterlimit:10;}
	.st29{fill:#FFE3CF;stroke:#45413C;stroke-linecap:round;stroke-linejoin:round;stroke-miterlimit:10;}
	.st30{fill:#FF6242;}
	.st31{fill:#FF866E;}
	.st32{fill:none;stroke:#E04122;stroke-linecap:round;stroke-linejoin:round;stroke-miterlimit:10;}
	.st33{fill:#FFFEF2;stroke:#45413C;stroke-linecap:round;stroke-linejoin:round;stroke-miterlimit:10;}
	.st34{fill:#FF6242;stroke:#45413C;stroke-linecap:round;stroke-linejoin:round;stroke-miterlimit:10;}
	.st35{fill:#FFA694;}
	.st36{fill:#FFFFFF;stroke:#45413C;stroke-linecap:round;stroke-linejoin:round;stroke-miterlimit:10;}
	.st37{fill:#FFFEF2;}
	.st38{fill:#FF6196;}
	.st39{fill:#B89558;}
	.st40{fill:none;stroke:#915E3A;stroke-linecap:round;stroke-linejoin:round;stroke-miterlimit:10;}
	.st41{fill:#DEBB7E;stroke:#45413C;stroke-linecap:round;stroke-linejoin:round;stroke-miterlimit:10;}
	.st42{fill:#6DD627;stroke:#45413C;stroke-linecap:round;stroke-linejoin:round;stroke-miterlimit:10;}
	.st43{fill:#E5F8FF;}
	.st44{fill:#E8F4FA;}
	.st45{fill:#E8F4FA;stroke:#45413C;stroke-linecap:round;stroke-linejoin:round;stroke-miterlimit:10;}
	.st46{fill:#FFCCDD;}
	.st47{fill:#E5F8FF;stroke:#45413C;stroke-linecap:round;stroke-linejoin:round;stroke-miterlimit:10;}
	.st48{fill:#00B8F0;stroke:#45413C;stroke-linecap:round;stroke-linejoin:round;stroke-miterlimit:10;}
	.st49{fill:#00B8F0;}
	.st50{fill:#4ACFFF;}
	.st51{fill:#E04122;}
	.st52{fill:#E04122;stroke:#45413C;stroke-linecap:round;stroke-linejoin:round;stroke-miterlimit:10;}
	.st53{fill:#87898C;}
	.st54{fill:#BDBEC0;}
	.st55{fill:#656769;}
	.st56{fill:#525252;}
	.st57{fill:#FFF48C;stroke:#45413C;stroke-linecap:round;stroke-linejoin:round;stroke-miterlimit:10;}
	.st58{fill:#6DD627;}
	.st59{fill:#EB6D00;}
	.st60{fill:#46B000;}
	.st61{fill:#80DDFF;}
	.st62{fill:#DAEDF7;}
	.st63{fill:#BF8DF2;stroke:#45413C;stroke-linecap:round;stroke-linejoin:round;stroke-miterlimit:10;}
	.st64{fill:#9F5AE5;stroke:#45413C;stroke-linecap:round;stroke-linejoin:round;stroke-miterlimit:10;}
	.st65{fill:#C8FFA1;}
	.st66{fill:#E4FFD1;}
	.st67{fill:#9CEB60;}
	.st68{fill:#E5FEFF;}
	.st69{fill:#B8ECFF;}
	.st70{fill:#E0E0E0;stroke:#45413C;stroke-linecap:round;stroke-linejoin:round;stroke-miterlimit:10;}
	.st71{fill:#E0E0E0;}
	.st72{fill:none;stroke:#4F4B45;stroke-linejoin:round;stroke-miterlimit:10;}
	.st73{fill:none;stroke:#4F4B45;stroke-linecap:round;stroke-linejoin:round;stroke-miterlimit:10;}
	.st74{fill:#E0366F;stroke:#45413C;stroke-linecap:round;stroke-linejoin:round;stroke-miterlimit:10;}
	.st75{fill:none;stroke:#45413C;stroke-miterlimit:10;}
	.st76{fill:#FF866E;stroke:#45413C;stroke-linecap:round;stroke-linejoin:round;stroke-miterlimit:10;}
	.st77{fill:#45413C;stroke:#45413C;stroke-linecap:round;stroke-linejoin:round;stroke-miterlimit:10;}
	.st78{fill:#9F5AE5;}
	.st79{fill:#803EC2;}
	.st80{fill:#803EC2;stroke:#45413C;stroke-linecap:round;stroke-linejoin:round;stroke-miterlimit:10;}
	.st81{fill:#BF8DF2;}
	.st82{fill:#FFAA54;stroke:#45413C;stroke-linecap:round;stroke-linejoin:round;stroke-miterlimit:10;}
	.st83{fill:none;stroke:#45413C;stroke-linejoin:round;stroke-miterlimit:10;}
	.st84{fill:#FFCCDD;stroke:#45413C;stroke-linecap:round;stroke-linejoin:round;stroke-miterlimit:10;}
	.st85{fill:#FF6196;stroke:#45413C;stroke-linecap:round;stroke-linejoin:round;stroke-miterlimit:10;}
	.st86{fill:#FFE5EE;}
	.st87{fill:#F7E5C6;stroke:#45413C;stroke-linecap:round;stroke-linejoin:round;stroke-miterlimit:10;}
	.st88{fill:#E5FFF9;}
	.st89{fill:none;stroke:#45413C;stroke-width:1.0064;stroke-linecap:round;stroke-linejoin:round;stroke-miterlimit:10;}
	.st90{fill:#4AEFF7;}
	.st91{fill:#A6FBFF;}
	.st92{fill:#E5FEFF;stroke:#45413C;stroke-linecap:round;stroke-linejoin:round;stroke-miterlimit:10;}
	.st93{fill:#46B000;stroke:#45413C;stroke-linecap:round;stroke-linejoin:round;stroke-miterlimit:10;}
	.st94{fill:#FFFFFF;stroke:#45413C;stroke-linejoin:round;stroke-miterlimit:10;}
	.st95{fill:#FFFFFF;stroke:#45413C;stroke-miterlimit:10;}
	.st96{fill:#009FD9;}
	.st97{fill:#00DFEB;}
	.st98{fill:#C0DCEB;stroke:#45413C;stroke-linecap:round;stroke-linejoin:round;stroke-miterlimit:10;}
	.st99{fill:#00DFEB;stroke:#45413C;stroke-linecap:round;stroke-linejoin:round;stroke-miterlimit:10;}
	.st100{fill:#FFE5EE;stroke:#45413C;stroke-linecap:round;stroke-linejoin:round;stroke-miterlimit:10;}
	.st101{fill:#8CA4B8;}
	.st102{fill:#ADC4D9;}
	.st103{fill:#656769;stroke:#45413C;stroke-linecap:round;stroke-linejoin:round;stroke-miterlimit:10;}
	.st104{fill:#F0F0F0;stroke:#45413C;stroke-linecap:round;stroke-linejoin:round;stroke-miterlimit:10;}
	.st105{fill:#C0DCEB;}
	.st106{fill:#45413C;}
	.st107{fill:#FFCABF;}
	.st108{fill:#87898C;stroke:#45413C;stroke-linecap:round;stroke-linejoin:round;stroke-miterlimit:10;}
	.st109{fill:#EBCB00;stroke:#45413C;stroke-linecap:round;stroke-linejoin:round;stroke-miterlimit:10;}</style>
  <style
     type="text/css"
     id="style928">.st0{opacity:0.15;fill:#45413C;}
	.st1{fill:#FFE500;}
	.st2{fill:#EBCB00;}
	.st3{fill:none;stroke:#45413C;stroke-linecap:round;stroke-linejoin:round;stroke-miterlimit:10;}
	.st4{fill:#FFAA54;}
	.st5{fill:#FF8A14;}
	.st6{fill:#FFB0CA;stroke:#45413C;stroke-linecap:round;stroke-linejoin:round;stroke-miterlimit:10;}
	.st7{fill:#FF87AF;stroke:#45413C;stroke-linecap:round;stroke-linejoin:round;stroke-miterlimit:10;}
	.st8{fill:#FFCC99;}
	.st9{fill:#FFFFFF;}
	.st10{fill:#F0F0F0;}
	.st11{fill:#BF8256;}
	.st12{fill:#915E3A;}
	.st13{fill:#DEA47A;}
	.st14{fill:#F0D5A8;}
	.st15{fill:#DEBB7E;}
	.st16{fill:#F7E5C6;}
	.st17{fill:#FF8A14;stroke:#45413C;stroke-linecap:round;stroke-linejoin:round;stroke-miterlimit:10;}
	.st18{fill:#FFF5E3;}
	.st19{fill:#FFF48C;}
	.st20{fill:#FFFACF;}
	.st21{fill:#FFFCE5;}
	.st22{fill:#FF87AF;}
	.st23{fill:#FFB0CA;}
	.st24{fill:#FFE500;stroke:#45413C;stroke-linecap:round;stroke-linejoin:round;stroke-miterlimit:10;}
	.st25{fill:#9CEB60;stroke:#45413C;stroke-linecap:round;stroke-linejoin:round;stroke-miterlimit:10;}
	.st26{fill:#FFFACF;stroke:#45413C;stroke-linecap:round;stroke-linejoin:round;stroke-miterlimit:10;}
	.st27{fill:#00F5BC;stroke:#45413C;stroke-linecap:round;stroke-linejoin:round;stroke-miterlimit:10;}
	.st28{fill:#BF8256;stroke:#45413C;stroke-linecap:round;stroke-linejoin:round;stroke-miterlimit:10;}
	.st29{fill:#FFE3CF;stroke:#45413C;stroke-linecap:round;stroke-linejoin:round;stroke-miterlimit:10;}
	.st30{fill:#FF6242;}
	.st31{fill:#FF866E;}
	.st32{fill:none;stroke:#E04122;stroke-linecap:round;stroke-linejoin:round;stroke-miterlimit:10;}
	.st33{fill:#FFFEF2;stroke:#45413C;stroke-linecap:round;stroke-linejoin:round;stroke-miterlimit:10;}
	.st34{fill:#FF6242;stroke:#45413C;stroke-linecap:round;stroke-linejoin:round;stroke-miterlimit:10;}
	.st35{fill:#FFA694;}
	.st36{fill:#FFFFFF;stroke:#45413C;stroke-linecap:round;stroke-linejoin:round;stroke-miterlimit:10;}
	.st37{fill:#FFFEF2;}
	.st38{fill:#FF6196;}
	.st39{fill:#B89558;}
	.st40{fill:none;stroke:#915E3A;stroke-linecap:round;stroke-linejoin:round;stroke-miterlimit:10;}
	.st41{fill:#DEBB7E;stroke:#45413C;stroke-linecap:round;stroke-linejoin:round;stroke-miterlimit:10;}
	.st42{fill:#6DD627;stroke:#45413C;stroke-linecap:round;stroke-linejoin:round;stroke-miterlimit:10;}
	.st43{fill:#E5F8FF;}
	.st44{fill:#E8F4FA;}
	.st45{fill:#E8F4FA;stroke:#45413C;stroke-linecap:round;stroke-linejoin:round;stroke-miterlimit:10;}
	.st46{fill:#FFCCDD;}
	.st47{fill:#E5F8FF;stroke:#45413C;stroke-linecap:round;stroke-linejoin:round;stroke-miterlimit:10;}
	.st48{fill:#00B8F0;stroke:#45413C;stroke-linecap:round;stroke-linejoin:round;stroke-miterlimit:10;}
	.st49{fill:#00B8F0;}
	.st50{fill:#4ACFFF;}
	.st51{fill:#E04122;}
	.st52{fill:#E04122;stroke:#45413C;stroke-linecap:round;stroke-linejoin:round;stroke-miterlimit:10;}
	.st53{fill:#87898C;}
	.st54{fill:#BDBEC0;}
	.st55{fill:#656769;}
	.st56{fill:#525252;}
	.st57{fill:#FFF48C;stroke:#45413C;stroke-linecap:round;stroke-linejoin:round;stroke-miterlimit:10;}
	.st58{fill:#6DD627;}
	.st59{fill:#EB6D00;}
	.st60{fill:#46B000;}
	.st61{fill:#80DDFF;}
	.st62{fill:#DAEDF7;}
	.st63{fill:#BF8DF2;stroke:#45413C;stroke-linecap:round;stroke-linejoin:round;stroke-miterlimit:10;}
	.st64{fill:#9F5AE5;stroke:#45413C;stroke-linecap:round;stroke-linejoin:round;stroke-miterlimit:10;}
	.st65{fill:#C8FFA1;}
	.st66{fill:#E4FFD1;}
	.st67{fill:#9CEB60;}
	.st68{fill:#E5FEFF;}
	.st69{fill:#B8ECFF;}
	.st70{fill:#E0E0E0;stroke:#45413C;stroke-linecap:round;stroke-linejoin:round;stroke-miterlimit:10;}
	.st71{fill:#E0E0E0;}
	.st72{fill:none;stroke:#4F4B45;stroke-linejoin:round;stroke-miterlimit:10;}
	.st73{fill:none;stroke:#4F4B45;stroke-linecap:round;stroke-linejoin:round;stroke-miterlimit:10;}
	.st74{fill:#E0366F;stroke:#45413C;stroke-linecap:round;stroke-linejoin:round;stroke-miterlimit:10;}
	.st75{fill:none;stroke:#45413C;stroke-miterlimit:10;}
	.st76{fill:#FF866E;stroke:#45413C;stroke-linecap:round;stroke-linejoin:round;stroke-miterlimit:10;}
	.st77{fill:#45413C;stroke:#45413C;stroke-linecap:round;stroke-linejoin:round;stroke-miterlimit:10;}
	.st78{fill:#9F5AE5;}
	.st79{fill:#803EC2;}
	.st80{fill:#803EC2;stroke:#45413C;stroke-linecap:round;stroke-linejoin:round;stroke-miterlimit:10;}
	.st81{fill:#BF8DF2;}
	.st82{fill:#FFAA54;stroke:#45413C;stroke-linecap:round;stroke-linejoin:round;stroke-miterlimit:10;}
	.st83{fill:none;stroke:#45413C;stroke-linejoin:round;stroke-miterlimit:10;}
	.st84{fill:#FFCCDD;stroke:#45413C;stroke-linecap:round;stroke-linejoin:round;stroke-miterlimit:10;}
	.st85{fill:#FF6196;stroke:#45413C;stroke-linecap:round;stroke-linejoin:round;stroke-miterlimit:10;}
	.st86{fill:#FFE5EE;}
	.st87{fill:#F7E5C6;stroke:#45413C;stroke-linecap:round;stroke-linejoin:round;stroke-miterlimit:10;}
	.st88{fill:#E5FFF9;}
	.st89{fill:none;stroke:#45413C;stroke-width:1.0064;stroke-linecap:round;stroke-linejoin:round;stroke-miterlimit:10;}
	.st90{fill:#4AEFF7;}
	.st91{fill:#A6FBFF;}
	.st92{fill:#E5FEFF;stroke:#45413C;stroke-linecap:round;stroke-linejoin:round;stroke-miterlimit:10;}
	.st93{fill:#46B000;stroke:#45413C;stroke-linecap:round;stroke-linejoin:round;stroke-miterlimit:10;}
	.st94{fill:#FFFFFF;stroke:#45413C;stroke-linejoin:round;stroke-miterlimit:10;}
	.st95{fill:#FFFFFF;stroke:#45413C;stroke-miterlimit:10;}
	.st96{fill:#009FD9;}
	.st97{fill:#00DFEB;}
	.st98{fill:#C0DCEB;stroke:#45413C;stroke-linecap:round;stroke-linejoin:round;stroke-miterlimit:10;}
	.st99{fill:#00DFEB;stroke:#45413C;stroke-linecap:round;stroke-linejoin:round;stroke-miterlimit:10;}
	.st100{fill:#FFE5EE;stroke:#45413C;stroke-linecap:round;stroke-linejoin:round;stroke-miterlimit:10;}
	.st101{fill:#8CA4B8;}
	.st102{fill:#ADC4D9;}
	.st103{fill:#656769;stroke:#45413C;stroke-linecap:round;stroke-linejoin:round;stroke-miterlimit:10;}
	.st104{fill:#F0F0F0;stroke:#45413C;stroke-linecap:round;stroke-linejoin:round;stroke-miterlimit:10;}
	.st105{fill:#C0DCEB;}
	.st106{fill:#45413C;}
	.st107{fill:#FFCABF;}
	.st108{fill:#87898C;stroke:#45413C;stroke-linecap:round;stroke-linejoin:round;stroke-miterlimit:10;}
	.st109{fill:#EBCB00;stroke:#45413C;stroke-linecap:round;stroke-linejoin:round;stroke-miterlimit:10;}</style>
  <g
     id="g1005"
     transform="matrix(3.1275925,0,0,3.1275925,5.5200922,5.5200922)"
     style="fill:#3771c8;fill-opacity:1;stroke-width:1.20847">
    <rect
       transform="scale(0.26458)"
       x="4.5"
       y="4.5"
       width="55"
       height="55"
       ry="18.12705"
       fill="#141414"
       filter="url(#filter1057)"
       opacity="0.3"
       stroke-linecap="round"
       stroke-width="3.31653"
       id="rect898"
       style="fill:#3771c8;fill-opacity:1"
       rx="18.12705" />
    <rect
       x="1.1906"
       y="1.1906"
       width="14.552"
       height="14.552"
       ry="4.7960553"
       fill="url(#linearGradient1053)"
       stroke-linecap="round"
       stroke-width="0.877471"
       id="rect900"
       style="fill:#3771c8;fill-opacity:1"
       rx="4.7960553" />
    <g
       fill="#5e4aa6"
       stroke-width="0.319736"
       id="g914"
       style="fill:#3771c8;fill-opacity:1">
      <circle
         cx="-330.38"
         cy="-328.51001"
         r="0"
         id="circle902"
         style="fill:#3771c8;fill-opacity:1;stroke-width:0.319736" />
      <circle
         cx="-301.70999"
         cy="-344.42999"
         r="0"
         id="circle904"
         style="fill:#3771c8;fill-opacity:1;stroke-width:0.319736" />
      <circle
         cx="-259.01001"
         cy="-348.26001"
         r="0"
         id="circle906"
         style="fill:#3771c8;fill-opacity:1;stroke-width:0.319736" />
      <circle
         cx="31.886"
         cy="-13.442"
         r="0"
         fill-rule="evenodd"
         id="circle908"
         style="fill:#3771c8;fill-opacity:1;stroke-width:0.353483" />
      <circle
         cx="-257.29001"
         cy="-350.64999"
         r="0"
         id="circle910"
         style="fill:#3771c8;fill-opacity:1;stroke-width:0.319736" />
      <circle
         cx="33.611"
         cy="-15.826"
         r="0"
         fill-rule="evenodd"
         id="circle912"
         style="fill:#3771c8;fill-opacity:1;stroke-width:0.353483" />
    </g>
    <g
       transform="translate(-29.022)"
       id="g926"
       style="fill:#3771c8;fill-opacity:1;stroke-width:1.33602">
      <circle
         cx="37.490002"
         cy="8.4602003"
         r="3.6366"
         opacity="0.15"
         stroke-width="1.51023"
         style="fill:#3771c8;fill-opacity:1;paint-order:stroke markers fill"
         id="circle918" />
      <circle
         cx="37.490002"
         cy="8.4602003"
         r="1.9845001"
         fill="#ff404e"
         stroke-width="1.51023"
         style="fill:#3771c8;fill-opacity:1;paint-order:stroke markers fill"
         id="circle920" />
      <path
         d="m 36.528,7.5064 5.9732,-4.053 -4.053,5.9732 z"
         color="#000000"
         fill="#ffffff"
         stroke-width="0.0713083"
         id="path922"
         style="fill:#3771c8;fill-opacity:1" />
      <path
         d="m 36.528,7.5064 -4.053,5.9732 5.9732,-4.053 z"
         color="#000000"
         fill="#dfdfdf"
         stroke-width="0.0713083"
         id="path924"
         style="fill:#3771c8;fill-opacity:1" />
    </g>
    <g
       fill="#5e4aa6"
       id="g960"
       style="fill:#3771c8;fill-opacity:1;stroke-width:1.33602">
      <circle
         cx="-319.54999"
         cy="-349.41"
         r="0"
         stroke-width="0.319736"
         id="circle930"
         style="fill:#3771c8;fill-opacity:1" />
      <circle
         cx="-290.89001"
         cy="-365.31"
         r="0"
         stroke-width="0.319736"
         id="circle932"
         style="fill:#3771c8;fill-opacity:1" />
      <g
         transform="translate(1.6038,-14.265)"
         stroke-width="0.319736"
         id="g946"
         style="fill:#3771c8;fill-opacity:1">
        <circle
           cx="-330.38"
           cy="-328.51001"
           r="0"
           id="circle934"
           style="fill:#3771c8;fill-opacity:1;stroke-width:0.319736" />
        <circle
           cx="-301.70999"
           cy="-344.42999"
           r="0"
           id="circle936"
           style="fill:#3771c8;fill-opacity:1;stroke-width:0.319736" />
        <circle
           cx="-259.01001"
           cy="-348.26001"
           r="0"
           id="circle938"
           style="fill:#3771c8;fill-opacity:1;stroke-width:0.319736" />
        <circle
           cx="31.886"
           cy="-13.442"
           r="0"
           fill-rule="evenodd"
           id="circle940"
           style="fill:#3771c8;fill-opacity:1;stroke-width:0.353483" />
        <circle
           cx="-257.29001"
           cy="-350.64999"
           r="0"
           id="circle942"
           style="fill:#3771c8;fill-opacity:1;stroke-width:0.319736" />
        <circle
           cx="33.611"
           cy="-15.826"
           r="0"
           fill-rule="evenodd"
           id="circle944"
           style="fill:#3771c8;fill-opacity:1;stroke-width:0.353483" />
      </g>
      <g
         transform="matrix(0.26458,0,0,0.26458,-43.411,-6.6509)"
         id="g954"
         style="fill:#3771c8;fill-opacity:1;stroke-width:1.20847">
        <circle
           cx="-1248.7"
           cy="-1241.6"
           r="0"
           id="circle948"
           style="fill:#3771c8;fill-opacity:1;stroke-width:1.20847" />
        <circle
           cx="-1140.3"
           cy="-1301.8"
           r="0"
           id="circle950"
           style="fill:#3771c8;fill-opacity:1;stroke-width:1.20847" />
        <circle
           cx="-1158.1"
           cy="-1246"
           r="0"
           id="circle952"
           style="fill:#3771c8;fill-opacity:1;stroke-width:1.20847" />
      </g>
      <circle
         cx="-349.60999"
         cy="-342.06"
         r="0"
         stroke-width="0.319736"
         id="circle956"
         style="fill:#3771c8;fill-opacity:1" />
      <circle
         cx="-58.692001"
         cy="-7.2284999"
         r="0"
         fill-rule="evenodd"
         stroke-width="0.319736"
         id="circle958"
         style="fill:#3771c8;fill-opacity:1" />
    </g>
  </g>
  <path
     fill="currentColor"
     d="m 26.01335,34.729436 c -2.457129,0.158013 -4.687047,1.093847 -5.952357,4.428065 -0.143925,0.380341 -0.489961,0.611237 -0.893561,0.611237 -0.680427,0 -2.784175,-1.69467 -3.383762,-2.103793 2.81e-4,2.609494 0.622282,5.05553 1.986594,6.808714 1.272609,1.635342 3.191095,2.667842 5.853325,2.667842 4.646011,0 7.839306,-2.68073 7.839306,-7.361128 0,-0.190472 -0.0398,-0.372371 -0.05941,-0.559172 z M 43.827557,15.78367 c -0.928463,0 -1.798747,0.410959 -2.462641,1.007491 C 28.845915,27.974639 27.54324,28.237386 27.54324,31.529342 c 0,0.839067 0.199042,1.638938 0.534665,2.370212 l 3.908626,3.257051 c 0.441576,0.110242 0.896623,0.185576 1.371271,0.185576 3.803902,0 6.008697,-2.784847 12.932401,-15.707091 0.45198,-0.878874 0.851298,-1.828182 0.851298,-2.816694 0,-1.770611 -1.592357,-3.034726 -3.313944,-3.034726 z"
     id="path6191"
     style="fill:#303030;fill-opacity:1;stroke-width:0.0740126"
     sodipodi:nodetypes="ccscsssccscsccscss" />
  <path
     fill="currentColor"
     d="m 26.01335,34.729436 c -2.457129,0.158013 -4.687047,1.093847 -5.952357,4.428065 -0.143925,0.380341 -0.489961,0.611237 -0.893561,0.611237 -0.680427,0 -2.784175,-1.69467 -3.383762,-2.103793 2.81e-4,2.609494 0.622282,5.05553 1.986594,6.808714 1.272609,1.635342 3.191095,2.667842 5.853325,2.667842 4.646011,0 7.839306,-2.68073 7.839306,-7.361128 0,-0.190472 -0.0398,-0.372371 -0.05941,-0.559172 z M 43.827557,15.78367 c -0.928463,0 -1.798747,0.410959 -2.462641,1.007491 C 28.845915,27.974639 27.54324,28.237386 27.54324,31.529342 c 0,0.839067 0.199042,1.638938 0.534665,2.370212 l 3.908626,3.257051 c 0.441576,0.110242 0.896623,0.185576 1.371271,0.185576 3.803902,0 6.008697,-2.784847 12.932401,-15.707091 0.45198,-0.878874 0.851298,-1.828182 0.851298,-2.816694 0,-1.770611 -1.592357,-3.034726 -3.313944,-3.034726 z"
     id="path10839"
     style="fill:#303030;fill-opacity:1;stroke-width:0.0740126"
     sodipodi:nodetypes="ccscsssccscsccscss" />
  <path
     fill="currentColor"
     d="m 26.01335,34.729436 c -2.457129,0.158013 -4.687047,1.093847 -5.952357,4.428065 -0.143925,0.380341 -0.489961,0.611237 -0.893561,0.611237 -0.680427,0 -2.784175,-1.69467 -3.383762,-2.103793 2.81e-4,2.609494 0.622282,5.05553 1.986594,6.808714 1.272609,1.635342 3.191095,2.667842 5.853325,2.667842 4.646011,0 7.839306,-2.68073 7.839306,-7.361128 0,-0.190472 -0.0398,-0.372371 -0.05941,-0.559172 z M 43.827557,15.78367 c -0.928463,0 -1.798747,0.410959 -2.462641,1.007491 C 28.845915,27.974639 27.54324,28.237386 27.54324,31.529342 c 0,0.839067 0.199042,1.638938 0.534665,2.370212 l 3.908626,3.257051 c 0.441576,0.110242 0.896623,0.185576 1.371271,0.185576 3.803902,0 6.008697,-2.784847 12.932401,-15.707091 0.45198,-0.878874 0.851298,-1.828182 0.851298,-2.816694 0,-1.770611 -1.592357,-3.034726 -3.313944,-3.034726 z"
     id="path10841"
     style="fill:#303030;fill-opacity:1;stroke-width:0.0740126"
     sodipodi:nodetypes="ccscsssccscsccscss" />
  <path
     fill="currentColor"
     d="m 43.827562,15.783669 c -0.928463,0 -1.798746,0.410959 -2.462644,1.007492 C 28.845915,27.974639 27.54324,28.237386 27.54324,31.529342 c 0,0.839067 0.199042,1.638938 0.534665,2.370212 l 3.908626,3.257051 c 0.441576,0.110242 0.896623,0.185576 1.371271,0.185576 3.803902,0 6.008705,-2.784847 12.932402,-15.707092 0.451985,-0.878874 0.8513,-1.828182 0.8513,-2.816693 0,-1.770612 -1.592352,-3.034727 -3.313942,-3.034727 z"
     id="path10845"
     style="fill:#393942;fill-opacity:1;stroke-width:0.0740126"
     sodipodi:nodetypes="scsccscss" />
  <g
     inkscape:groupmode="layer"
     id="layer2"
     inkscape:label="Layer 1"
     sodipodi:insensitive="true" />
</svg>
