<?xml version="1.0" encoding="UTF-8" standalone="no"?>
<svg
   width="64"
   height="64"
   version="1.1"
   id="svg37"
   sodipodi:docname="simplescreenrecorder.svg"
   inkscape:version="1.1.1 (3bf5ae0, 2021-09-20)"
   xmlns:inkscape="http://www.inkscape.org/namespaces/inkscape"
   xmlns:sodipodi="http://sodipodi.sourceforge.net/DTD/sodipodi-0.dtd"
   xmlns:xlink="http://www.w3.org/1999/xlink"
   xmlns="http://www.w3.org/2000/svg"
   xmlns:svg="http://www.w3.org/2000/svg"
   xmlns:rdf="http://www.w3.org/1999/02/22-rdf-syntax-ns#"
   xmlns:cc="http://creativecommons.org/ns#"
   xmlns:dc="http://purl.org/dc/elements/1.1/">
  <metadata
     id="metadata41">
    <rdf:RDF>
      <cc:Work
         rdf:about="">
        <dc:format>image/svg+xml</dc:format>
        <dc:type
           rdf:resource="http://purl.org/dc/dcmitype/StillImage" />
        <dc:title />
      </cc:Work>
    </rdf:RDF>
  </metadata>
  <sodipodi:namedview
     pagecolor="#ffffff"
     bordercolor="#666666"
     borderopacity="1"
     objecttolerance="10"
     gridtolerance="10"
     guidetolerance="10"
     inkscape:pageopacity="0"
     inkscape:pageshadow="2"
     inkscape:window-width="1600"
     inkscape:window-height="842"
     id="namedview39"
     showgrid="false"
     inkscape:zoom="4.5906698"
     inkscape:cx="-7.9509095"
     inkscape:cy="17.535567"
     inkscape:window-x="0"
     inkscape:window-y="24"
     inkscape:window-maximized="1"
     inkscape:current-layer="svg37"
     inkscape:pagecheckerboard="0" />
  <defs
     id="defs23">
    <linearGradient
       id="e"
       x1="31.995"
       x2="31.995"
       y1="17.647"
       y2="46.337"
       gradientUnits="userSpaceOnUse">
      <stop
         stop-color="#289dc7"
         offset="0"
         id="stop2" />
      <stop
         stop-color="#393f95"
         offset="1"
         id="stop4" />
    </linearGradient>
    <linearGradient
       id="d"
       x1="32"
       x2="32"
       y1="28.113"
       y2="38.548"
       gradientUnits="userSpaceOnUse">
      <stop
         stop-color="#f80095"
         offset="0"
         id="stop7" />
      <stop
         stop-color="#f8004e"
         offset="1"
         id="stop9" />
    </linearGradient>
    <filter
       id="f"
       x="-0.099686635"
       y="-0.1178261"
       width="1.1993733"
       height="1.2356522"
       color-interpolation-filters="sRGB">
      <feGaussianBlur
         stdDeviation="1.4085099"
         id="feGaussianBlur12" />
    </filter>
    <filter
       id="g"
       x="-0.059999899"
       y="-0.059999899"
       width="1.1199998"
       height="1.1199998"
       color-interpolation-filters="sRGB">
      <feGaussianBlur
         stdDeviation="0.26086955"
         id="feGaussianBlur15" />
    </filter>
    <linearGradient
       id="linearGradient862"
       x1="7.9373"
       x2="7.9373"
       y1="15.081"
       y2="1.852"
       gradientTransform="matrix(3.7796,0,0,3.7796,1.5502529,-23.874972)"
       gradientUnits="userSpaceOnUse">
      <stop
         stop-color="#f1efeb"
         offset="0"
         id="stop18" />
      <stop
         stop-color="#fff"
         offset="1"
         id="stop20" />
    </linearGradient>
    <filter
       id="filter2761"
       x="-.024"
       y="-.024"
       width="1.048"
       height="1.048"
       color-interpolation-filters="sRGB">
      <feGaussianBlur
         stdDeviation="0.14552168"
         id="feGaussianBlur2" />
    </filter>
    <linearGradient
       id="a-9"
       x1="23.487"
       x2="23.487"
       y1="15.18"
       y2="32.913"
       gradientTransform="matrix(.12676 0 0 .12676 -27.515 6.7925)"
       gradientUnits="userSpaceOnUse">
      <stop
         stop-color="#141414"
         offset="0"
         id="stop5" />
      <stop
         stop-color="#30277f"
         offset="1"
         id="stop7-3" />
    </linearGradient>
    <radialGradient
       id="c-7"
       cx="24.047"
       cy="23.949"
       r="2.9867"
       gradientTransform="matrix(0.2056,-3.7539e-8,2.8431e-8,0.15571,-39.607,5.456)"
       gradientUnits="userSpaceOnUse">
      <stop
         stop-color="#2839e6"
         offset="0"
         id="stop10" />
      <stop
         stop-opacity="0"
         offset="1"
         id="stop12" />
    </radialGradient>
    <linearGradient
       id="d-6"
       x1="361.36"
       x2="361.36"
       y1="616.07"
       y2="722.79"
       gradientTransform="matrix(.0040372 0 0 .0040372 -25.925 7.1257)"
       gradientUnits="userSpaceOnUse">
      <stop
         stop-color="#fff"
         offset="0"
         id="stop15" />
      <stop
         stop-color="#fff"
         stop-opacity="0"
         offset="1"
         id="stop17" />
    </linearGradient>
    <radialGradient
       id="radialGradient123131"
       cx="-24.473"
       cy="9.8348"
       r="1.1409"
       gradientTransform="matrix(1.4202,0,0,1.0512,0.054505,-1.1471)"
       gradientUnits="userSpaceOnUse"
       xlink:href="#a-9" />
    <linearGradient
       id="linearGradient123141"
       x1="-24.485"
       x2="-24.485"
       y1="8.6962"
       y2="9.7506"
       gradientTransform="translate(-10.196,-0.6431)"
       gradientUnits="userSpaceOnUse"
       xlink:href="#d-6" />
    <linearGradient
       id="linearGradient123149"
       x1="-24.478"
       x2="-24.478"
       y1="11.104"
       y2="8.4912"
       gradientTransform="translate(-10.229,-0.6431)"
       gradientUnits="userSpaceOnUse">
      <stop
         stop-color="#2d1edc"
         offset="0"
         id="stop22" />
      <stop
         stop-color="#141414"
         offset="1"
         id="stop24" />
    </linearGradient>
    <radialGradient
       id="radialGradient123155"
       cx="-24.473"
       cy="9.8348"
       r="1.1409"
       gradientTransform="matrix(1.1403,0,0,0.84405,-6.7958,0.89063)"
       gradientUnits="userSpaceOnUse"
       xlink:href="#a-9" />
    <linearGradient
       id="linearGradient123157"
       x1="-24.478"
       x2="-24.478"
       y1="11.104"
       y2="8.4912"
       gradientTransform="matrix(0.8029,0,0,0.8029,-15.053,1.2953)"
       gradientUnits="userSpaceOnUse"
       xlink:href="#a-9" />
    <radialGradient
       id="radialGradient123159"
       cx="-24.473"
       cy="9.8348"
       r="1.5211"
       gradientTransform="matrix(0.93082,0,0,0.93082,-11.889,0.037279)"
       gradientUnits="userSpaceOnUse">
      <stop
         stop-color="#291dc0"
         offset="0"
         id="stop29" />
      <stop
         stop-color="#1b1b23"
         offset="1"
         id="stop31" />
    </radialGradient>
    <linearGradient
       id="linearGradient123161"
       x1="361.36"
       x2="361.36"
       y1="616.07"
       y2="722.79"
       gradientTransform="matrix(0.0040372,0,0,0.0040372,-36.122,6.4826)"
       gradientUnits="userSpaceOnUse"
       xlink:href="#d-6" />
    <linearGradient
       id="linearGradient123197"
       x1="-36.117"
       x2="-33.22"
       y1="10.638"
       y2="7.7404"
       gradientUnits="userSpaceOnUse">
      <stop
         offset="0"
         id="stop35" />
      <stop
         stop-opacity="0"
         offset="1"
         id="stop37" />
    </linearGradient>
    <linearGradient
       id="linearGradient952"
       x1="-20.384"
       x2="-23.272"
       y1="6.1331"
       y2="15.312"
       gradientUnits="userSpaceOnUse">
      <stop
         stop-color="#232323"
         offset="0"
         id="stop40" />
      <stop
         stop-color="#323296"
         offset=".95004"
         id="stop42" />
      <stop
         stop-color="#232323"
         offset="1"
         id="stop44" />
    </linearGradient>
    <linearGradient
       id="linearGradient1000"
       x1="-25.122"
       x2="-15.582"
       y1="9.3424"
       y2="9.3424"
       gradientUnits="userSpaceOnUse">
      <stop
         stop-color="#407fff"
         offset="0"
         id="stop47" />
      <stop
         stop-color="#ff407a"
         offset="1"
         id="stop49" />
    </linearGradient>
    <linearGradient
       id="linearGradient1024"
       x1="1.3315"
       x2="15.65"
       y1="15.576"
       y2="1.17"
       gradientUnits="userSpaceOnUse">
      <stop
         stop-color="#dddfe1"
         offset="0"
         id="stop52" />
      <stop
         stop-color="#f3f4f6"
         stop-opacity=".99608"
         offset="1"
         id="stop54" />
    </linearGradient>
    <filter
       color-interpolation-filters="sRGB"
       height="1.048"
       width="1.048"
       y="-.024"
       x="-.024"
       id="filter2761-3">
      <feGaussianBlur
         id="feGaussianBlur2-3"
         stdDeviation="0.14552168" />
    </filter>
    <linearGradient
       gradientUnits="userSpaceOnUse"
       gradientTransform="matrix(3.7796 0 0 3.7796 -.0026448 .53066)"
       y2="1.17"
       y1="15.576"
       x2="15.65"
       x1="1.3315"
       id="linearGradient1024-6">
      <stop
         id="stop5-7"
         offset="0"
         stop-color="#dddfe1" />
      <stop
         id="stop7-5"
         offset="1"
         stop-opacity=".99608"
         stop-color="#f3f4f6" />
    </linearGradient>
    <filter
       inkscape:collect="always"
       style="color-interpolation-filters:sRGB"
       id="filter1057"
       x="-0.026999999"
       width="1.054"
       y="-0.026999999"
       height="1.054">
      <feGaussianBlur
         inkscape:collect="always"
         stdDeviation="0.61875"
         id="feGaussianBlur1059" />
    </filter>
    <linearGradient
       inkscape:collect="always"
       xlink:href="#linearGradient1051"
       id="linearGradient1053"
       x1="-127"
       y1="60"
       x2="-72"
       y2="5"
       gradientUnits="userSpaceOnUse"
       gradientTransform="translate(131.5,-0.50999676)" />
    <linearGradient
       inkscape:collect="always"
       id="linearGradient1051">
      <stop
         style="stop-color:#dee0e2;stop-opacity:1"
         offset="0"
         id="stop1047" />
      <stop
         style="stop-color:#f1f3f5;stop-opacity:0.99607843"
         offset="1"
         id="stop1049" />
    </linearGradient>
  </defs>
  <rect
     ry="18.126923"
     y="4.4999995"
     x="4.4999995"
     height="55"
     width="55"
     id="rect1055"
     style="opacity:0.3;fill:#141414;fill-opacity:1;stroke-width:3.31644;stroke-linecap:round;filter:url(#filter1057)"
     transform="matrix(0.82749843,0,0,0.82749843,5.5200926,5.5200926)"
     rx="18.126923" />
  <rect
     style="fill:url(#linearGradient1053);fill-opacity:1;stroke-width:2.74436;stroke-linecap:round"
     id="rect1045"
     width="45.512413"
     height="45.512413"
     x="9.2438374"
     y="9.2438374"
     ry="14.999999"
     rx="14.999999" />
  <path
     d="m 27.475,17.652 c -0.62609,0 -1.2378,0.20348 -1.8339,0.61174 -0.5961,0.40826 -0.99913,0.90652 -1.2274,1.4622 l -0.89739,3.1383 h -3.9522 c -1.2483,0 -2.2983,0.44348 -3.18,1.3043 -0.88696,0.86609 -1.3448,1.9213 -1.3448,3.1383 v 14.633 c 0,1.2183 0.45913,2.237 1.3448,3.0978 0.88174,0.86087 1.9304,1.2991 3.18,1.2991 h 24.861 c 1.2483,0 2.3387,-0.44348 3.2204,-1.2991 0.88174,-0.86609 1.3043,-1.8848 1.3043,-3.0978 v -14.633 c 0,-1.2183 -0.42261,-2.2722 -1.3043,-3.1383 -0.88169,-0.8661 -1.9722,-1.3043 -3.2204,-1.3043 h -3.9522 l -0.89739,-3.1383 c -0.21913,-0.56087 -0.62609,-1.0552 -1.2235,-1.4674 -0.59609,-0.40826 -1.213,-0.61174 -1.8339,-0.61174 m -5.1,7.8261 c 4.2848,-0.31565 8.4065,3.5309 8.3974,7.8209 0,4.1022 -3.7291,7.8261 -7.8209,7.8261 -4.1022,0 -7.8261,-3.7291 -7.8261,-7.8261 -0.01044,-3.913 3.3522,-7.5404 7.2561,-7.8209"
     filter="url(#f)"
     opacity="0.15"
     id="path29"
     transform="matrix(0.82749843,0,0,0.82749843,5.5200926,5.5200926)"
     style="stroke-width:1.20846" />
  <path
     d="m 28.255613,20.127096 c -0.518089,0 -1.024279,0.168379 -1.517551,0.506213 -0.49327,0.337834 -0.826777,0.750144 -1.015671,1.209969 l -0.742588,2.596938 h -3.27044 c -1.032966,0 -1.90184,0.366979 -2.631446,1.079305 -0.733956,0.716689 -1.112818,1.589874 -1.112818,2.596939 v 12.108785 c 0,1.008141 0.379929,1.851113 1.112818,2.563425 0.729639,0.712367 1.597405,1.075003 2.631446,1.075003 h 20.572439 c 1.032967,0 1.935271,-0.366979 2.664875,-1.075003 0.729641,-0.716689 1.079307,-1.559669 1.079307,-2.563425 V 28.11646 c 0,-1.008142 -0.349708,-1.880241 -1.079307,-2.596939 -0.729596,-0.716696 -1.631991,-1.079305 -2.664875,-1.079305 h -3.270439 l -0.742589,-2.596938 c -0.18133,-0.46412 -0.518088,-0.873177 -1.012445,-1.214271 -0.493263,-0.337836 -1.003755,-0.506215 -1.517548,-0.506215 m -4.220242,6.476086 c 3.545664,-0.2612 6.956365,2.921815 6.948835,6.471782 0,3.394564 -3.085825,6.476086 -6.471783,6.476086 -3.394564,0 -6.476086,-3.085824 -6.476086,-6.476086 -0.0086,-3.238001 2.773941,-6.239669 6.004412,-6.471782"
     fill="url(#e)"
     id="path31"
     style="fill:url(#e);stroke-width:1" />
  <path
     d="m 37.217,33.33 c 0,2.8839 -2.3387,5.2174 -5.2174,5.2174 -2.8839,0 -5.2174,-2.3335 -5.2174,-5.2174 0,-2.8839 2.3335,-5.2174 5.2174,-5.2174 2.8787,0 5.2174,2.3335 5.2174,5.2174"
     filter="url(#g)"
     opacity="0.15"
     id="path33"
     transform="matrix(0.82749843,0,0,0.82749843,5.5200926,5.5200926)"
     style="stroke-width:1.20846" />
  <path
     d="m 36.317102,33.100615 c 0,2.386424 -1.93527,4.317392 -4.317391,4.317392 -2.386422,0 -4.317389,-1.930968 -4.317389,-4.317392 0,-2.386421 1.930967,-4.31739 4.317389,-4.31739 2.382121,0 4.317391,1.930969 4.317391,4.31739"
     fill="url(#d)"
     id="path35"
     style="fill:url(#d);stroke-width:1" />
</svg>
