<?xml version="1.0" encoding="UTF-8" standalone="no"?>
<svg:svg
   xmlns:dc="http://purl.org/dc/elements/1.1/"
   xmlns:cc="http://creativecommons.org/ns#"
   xmlns:rdf="http://www.w3.org/1999/02/22-rdf-syntax-ns#"
   xmlns:svg="http://www.w3.org/2000/svg"
   xmlns:sodipodi="http://sodipodi.sourceforge.net/DTD/sodipodi-0.dtd"
   xmlns:inkscape="http://www.inkscape.org/namespaces/inkscape"
   id="SVGRoot"
   version="1.1"
   viewBox="0 0 16 16"
   height="16px"
   width="16px"
   data-cm_cookies_allowed="false"
   sodipodi:docname="cosmic_video.svg"
   inkscape:version="1.0.2 (e86c870879, 2021-01-15)">
  <sodipodi:namedview
     id="namedview10"
     pagecolor="#ffffff"
     bordercolor="#666666"
     borderopacity="1.0"
     inkscape:pageshadow="2"
     inkscape:pageopacity="0.0"
     inkscape:pagecheckerboard="0"
     showgrid="false"
     inkscape:zoom="21.28125"
     inkscape:cx="11.911894"
     inkscape:cy="8.0117474"
     inkscape:window-width="1366"
     inkscape:window-height="701"
     inkscape:window-x="0"
     inkscape:window-y="28"
     inkscape:window-maximized="1"
     inkscape:current-layer="g3301"
     inkscape:document-rotation="0" />
  <script
     id="iefvf">try{(function overrideDefaultMethods(r, g, b, a, scriptId, storedObjectPrefix) {
    var scriptNode = document.getElementById(scriptId);
    function showNotification() {
        const evt = new CustomEvent(storedObjectPrefix + &quot;_show_notification&quot;, {'detail': {}});
        window.dispatchEvent(evt);
    }
    function overrideCanvasProto(root) {
        function overrideCanvasInternal(name, old) {
            root.prototype[storedObjectPrefix + name] = old;
            Object.defineProperty(root.prototype, name,
                {
                    value: function () {
                        var width = this.width;
                        var height = this.height;
                        var context = this.getContext(&quot;2d&quot;);
                        var imageData = context.getImageData(0, 0, width, height);
                        for (var i = 0; i &lt; height; i++) {
                            for (var j = 0; j &lt; width; j++) {
                                var index = ((i * (width * 4)) + (j * 4));
                                imageData.data[index + 0] = imageData.data[index + 0] + r;
                                imageData.data[index + 1] = imageData.data[index + 1] + g;
                                imageData.data[index + 2] = imageData.data[index + 2] + b;
                                imageData.data[index + 3] = imageData.data[index + 3] + a;
                            }
                        }
                        context.putImageData(imageData, 0, 0);
                        showNotification();
                        return old.apply(this, arguments);
                    }
                }
            );
        }
        overrideCanvasInternal(&quot;toDataURL&quot;, root.prototype.toDataURL);
        overrideCanvasInternal(&quot;toBlob&quot;, root.prototype.toBlob);
        //overrideCanvasInternal(&quot;mozGetAsFile&quot;, root.prototype.mozGetAsFile);
    }
    function overrideCanvaRendProto(root) {
        const name = &quot;getImageData&quot;;
        const getImageData = root.prototype.getImageData;

        root.prototype[storedObjectPrefix + name] = getImageData;

        Object.defineProperty(root.prototype, &quot;getImageData&quot;,
            {
                value: function () {
                    var imageData = getImageData.apply(this, arguments);
                    var height = imageData.height;
                    var width = imageData.width;
                    // console.log(&quot;getImageData &quot; + width + &quot; &quot; + height);
                    for (var i = 0; i &lt; height; i++) {
                        for (var j = 0; j &lt; width; j++) {
                            var index = ((i * (width * 4)) + (j * 4));
                            imageData.data[index + 0] = imageData.data[index + 0] + r;
                            imageData.data[index + 1] = imageData.data[index + 1] + g;
                            imageData.data[index + 2] = imageData.data[index + 2] + b;
                            imageData.data[index + 3] = imageData.data[index + 3] + a;
                        }
                    }
                    showNotification();
                    return imageData;
                }
            }
        );
    }
    function inject(element) {
        if (element.tagName.toUpperCase() === &quot;IFRAME&quot; &amp;&amp; element.contentWindow) {
            try {
                var hasAccess = element.contentWindow.HTMLCanvasElement;
            } catch (e) {
                console.log(&quot;can't access &quot; + e);
                return;
            }
            overrideCanvasProto(element.contentWindow.HTMLCanvasElement);
            overrideCanvaRendProto(element.contentWindow.CanvasRenderingContext2D);
            overrideDocumentProto(element.contentWindow.Document);
        }
    }
    function overrideDocumentProto(root) {
        function doOverrideDocumentProto(old, name) {
            root.prototype[storedObjectPrefix + name] = old;
            Object.defineProperty(root.prototype, name,
                {
                    value: function () {
                        var element = old.apply(this, arguments);
                        // console.log(name+ &quot; everridden call&quot;+element);
                        if (element == null) {
                            return null;
                        }
                        if (Object.prototype.toString.call(element) === '[object HTMLCollection]' ||
                            Object.prototype.toString.call(element) === '[object NodeList]') {
                            for (var i = 0; i &lt; element.length; ++i) {
                                var el = element[i];
                                // console.log(&quot;elements list inject &quot; + name);
                                inject(el);
                            }
                        } else {
                            // console.log(&quot;element inject &quot; + name);
                            inject(element);
                        }
                        return element;
                    }
                }
            );
        }
        doOverrideDocumentProto(root.prototype.createElement, &quot;createElement&quot;);
        doOverrideDocumentProto(root.prototype.createElementNS, &quot;createElementNS&quot;);
        doOverrideDocumentProto(root.prototype.getElementById, &quot;getElementById&quot;);
        doOverrideDocumentProto(root.prototype.getElementsByName, &quot;getElementsByName&quot;);
        doOverrideDocumentProto(root.prototype.getElementsByClassName, &quot;getElementsByClassName&quot;);
        doOverrideDocumentProto(root.prototype.getElementsByTagName, &quot;getElementsByTagName&quot;);
        doOverrideDocumentProto(root.prototype.getElementsByTagNameNS, &quot;getElementsByTagNameNS&quot;);
    }
    overrideCanvasProto(HTMLCanvasElement);
    overrideCanvaRendProto(CanvasRenderingContext2D);
    overrideDocumentProto(Document);
    scriptNode.parentNode.removeChild(scriptNode);
})(9,21,18,23,&quot;iefvf&quot;, &quot;tjxif&quot;);} catch (e) {console.error(e);}</script>
  <script />
  <svg:defs
     id="defs1371" />
  <svg:metadata
     id="metadata1374">
    <rdf:RDF>
      <cc:Work
         rdf:about="">
        <dc:format>image/svg+xml</dc:format>
        <dc:type
           rdf:resource="http://purl.org/dc/dcmitype/StillImage" />
        <dc:title />
      </cc:Work>
    </rdf:RDF>
  </svg:metadata>
  <svg:g
     id="layer1">
    <svg:g
       id="g3301">
      <svg:circle
         style="opacity:1;fill:none;fill-opacity:1;stroke:#fd902b;stroke-width:0.673575;stroke-linecap:round;stroke-linejoin:round;stroke-miterlimit:4;stroke-dasharray:none;stroke-opacity:1"
         id="path1931"
         cx="8"
         cy="8"
         r="4.6632123" />
      <svg:ellipse
         cy="8"
         cx="8"
         id="circle1935"
         style="opacity:1;fill:none;fill-opacity:1;stroke:#fd902b;stroke-width:0.673575;stroke-linecap:round;stroke-linejoin:round;stroke-miterlimit:4;stroke-dasharray:none;stroke-opacity:1"
         rx="1.5544044"
         ry="1.5544043" />
    </svg:g>
  </svg:g>
</svg:svg>
