<?xml version="1.0" encoding="UTF-8" standalone="no"?>
<svg
   version="1.1"
   viewBox="0 0 64 64"
   id="svg27"
   sodipodi:docname="guake-prefs.svg"
   width="64"
   height="64"
   inkscape:version="1.1.1 (3bf5ae0, 2021-09-20)"
   xmlns:inkscape="http://www.inkscape.org/namespaces/inkscape"
   xmlns:sodipodi="http://sodipodi.sourceforge.net/DTD/sodipodi-0.dtd"
   xmlns:xlink="http://www.w3.org/1999/xlink"
   xmlns="http://www.w3.org/2000/svg"
   xmlns:svg="http://www.w3.org/2000/svg"
   xmlns:rdf="http://www.w3.org/1999/02/22-rdf-syntax-ns#"
   xmlns:cc="http://creativecommons.org/ns#"
   xmlns:dc="http://purl.org/dc/elements/1.1/">
  <metadata
     id="metadata31">
    <rdf:RDF>
      <cc:Work
         rdf:about="">
        <dc:format>image/svg+xml</dc:format>
        <dc:type
           rdf:resource="http://purl.org/dc/dcmitype/StillImage" />
        <dc:title />
      </cc:Work>
    </rdf:RDF>
  </metadata>
  <sodipodi:namedview
     pagecolor="#ffffff"
     bordercolor="#666666"
     borderopacity="1"
     objecttolerance="10"
     gridtolerance="10"
     guidetolerance="10"
     inkscape:pageopacity="0"
     inkscape:pageshadow="2"
     inkscape:window-width="1600"
     inkscape:window-height="842"
     id="namedview29"
     showgrid="false"
     inkscape:zoom="2.8173786"
     inkscape:cx="-72.230264"
     inkscape:cy="61.227128"
     inkscape:window-x="0"
     inkscape:window-y="24"
     inkscape:window-maximized="1"
     inkscape:current-layer="svg27"
     inkscape:pagecheckerboard="0" />
  <defs
     id="defs7">
    <linearGradient
       id="bg"
       x2="0"
       y1="1"
       y2="47"
       gradientUnits="userSpaceOnUse"
       gradientTransform="translate(90.296063)">
      <stop
         style="stop-color:#474747"
         offset="0"
         id="stop2" />
      <stop
         style="stop-color:#3d3d3d"
         offset="1"
         id="stop4" />
    </linearGradient>
    <filter
       id="filter2076"
       x="-0.048000001"
       y="-0.048000001"
       width="1.096"
       height="1.096"
       color-interpolation-filters="sRGB">
      <feGaussianBlur
         stdDeviation="1.1"
         id="feGaussianBlur159" />
    </filter>
    <linearGradient
       id="linearGradient2070"
       x1="145"
       x2="200"
       y1="59"
       y2="4"
       gradientTransform="matrix(0.26458,0,0,0.26458,-37.173,0.13229)"
       gradientUnits="userSpaceOnUse">
      <stop
         stop-color="#e1e1e1"
         offset="0"
         id="stop154" />
      <stop
         stop-color="#f5f5f5"
         offset="1"
         id="stop156" />
    </linearGradient>
    <linearGradient
       inkscape:collect="always"
       xlink:href="#linearGradient2070"
       id="linearGradient1454"
       gradientUnits="userSpaceOnUse"
       gradientTransform="matrix(1.0000071,0,0,1.000007,-140.49937,0.49977798)"
       x1="145"
       y1="59"
       x2="200"
       y2="4" />
    <linearGradient
       inkscape:collect="always"
       xlink:href="#linearGradient2070"
       id="linearGradient925"
       gradientUnits="userSpaceOnUse"
       gradientTransform="matrix(1.0000071,0,0,1.000007,-140.49937,0.49977798)"
       x1="145"
       y1="59"
       x2="200"
       y2="4" />
    <filter
       id="filter2076-3"
       x="-0.048"
       y="-0.048"
       width="1.096"
       height="1.096"
       color-interpolation-filters="sRGB">
      <feGaussianBlur
         stdDeviation="1.1"
         id="feGaussianBlur165" />
    </filter>
    <linearGradient
       id="linearGradient1805"
       x1="145"
       x2="200"
       y1="59"
       y2="4"
       gradientTransform="translate(-211.33016,-45.228294)"
       gradientUnits="userSpaceOnUse"
       xlink:href="#linearGradient2070" />
    <linearGradient
       id="linearGradient1460"
       x1="145"
       x2="200"
       y1="59"
       y2="4"
       gradientTransform="translate(-140.5,0.49978)"
       gradientUnits="userSpaceOnUse"
       xlink:href="#linearGradient2070" />
    <linearGradient
       id="linearGradient2044"
       x1="47"
       x2="47"
       y1="17"
       y2="19"
       gradientTransform="matrix(1.5085,0,0,1.5085,-94.589159,-56.881074)"
       gradientUnits="userSpaceOnUse">
      <stop
         stop-color="#606060"
         offset="0"
         id="stop170" />
      <stop
         stop-color="#414141"
         offset=".019551"
         id="stop172" />
      <stop
         stop-color="#1e1e1e"
         offset="1"
         id="stop174" />
    </linearGradient>
    <linearGradient
       id="linearGradient2042"
       x1="47"
       x2="47"
       y1="17"
       y2="19"
       gradientTransform="translate(-70.690109,-47.728074)"
       gradientUnits="userSpaceOnUse"
       xlink:href="#b" />
    <linearGradient
       id="b"
       x1="399.57001"
       x2="399.57001"
       y1="545.79999"
       y2="517.79999"
       gradientTransform="matrix(2.1429,0,0,2.1429,-826.36,-1107.5)"
       gradientUnits="userSpaceOnUse">
      <stop
         stop-color="#3889e9"
         offset="0"
         id="stop4-6" />
      <stop
         stop-color="#5ea5fb"
         offset="1"
         id="stop6" />
    </linearGradient>
  </defs>
  <rect
     transform="matrix(0.74834641,0,0,0.73504056,6.6230898,6.6478246)"
     x="4.5"
     y="4.5"
     width="55"
     height="55"
     rx="17.37443"
     ry="17.688944"
     filter="url(#filter2076)"
     opacity="0.3"
     id="rect178"
     style="stroke-width:1.34834" />
  <rect
     x="9.9906187"
     y="9.9554796"
     width="41.159332"
     height="40.427509"
     rx="13.00183"
     ry="13.001829"
     fill="url(#linearGradient2070)"
     stroke-width="1.00001"
     id="rect180"
     style="fill:url(#linearGradient1454)" />
  <rect
     x="11.861346"
     y="11.792941"
     width="37.417313"
     height="36.752026"
     rx="11.819948"
     ry="11.819948"
     fill="url(#linearGradient2070)"
     fill-opacity="0"
     stroke-width="0.909072"
     id="rect588"
     style="fill:url(#linearGradient925)" />
  <rect
     x="11.861346"
     y="11.792941"
     width="37.417313"
     height="36.752026"
     rx="11.819948"
     ry="10.467229"
     fill="#262626"
     stroke-width="0.909072"
     id="rect590" />
  <path
     d="m 17.175292,20.582096 v -1.581428 l 5.238302,2.928821 v 1.492784 l -5.238302,2.928822 v -1.581429 l 3.943074,-2.087501 z"
     fill="#ffffff"
     stroke-width="0.35097"
     id="path1019" />
  <path
     d="m 23.088258,30.169121 h 3.741705 v -9.555459 h 6.735071 v 9.555459 h 4.487051 l -7.854587,9.555458"
     style="fill:#000000;fill-opacity:1;stroke-width:0.999988"
     id="path1023" />
  <rect
     x="24.658695"
     y="27.074661"
     width="5.9866529"
     height="1.4700707"
     rx="0"
     ry="0"
     fill="#ffffff"
     stroke-width="3.7796"
     id="rect1021" />
  <g
     id="g1047"
     transform="matrix(0.7483411,0,0,0.73503534,9.0055363,-10.407782)"
     style="stroke-width:1.34834">
    <image
       id="image45"
       xlink:href="data:image/png;base64,iVBORw0KGgoAAAANSUhEUgAAAPgAAAD4CAYAAADB0SsLAAAABHNCSVQICAgIfAhkiAAAAAlwSFlz AABcRQAAXEUBuS1iLAAAABl0RVh0U29mdHdhcmUAd3d3Lmlua3NjYXBlLm9yZ5vuPBoAACAASURB VHic7Z3tlusor4SV7Pf+73h3nx9zmKHVKqkksGMnqrW8jPEXODyUwOm0SKvVels9Xl2A1pLO+vy+ T7pPa7Ma8Ovr6p9Rw39hXb3xfJLe7bNo8C+gd2tUd9LuZ3/EZ7kT0gb+BWrAz9PKs77q57QCbQN/ gq7acN5B1WebPe/ozzALYhXcBv4ANeB7dRScZ0F/FMxndRItpQZ8XTvhi661cm5WHmQRgKv7q8e2 lBrwuna4b2bfCvwVZSGtdghHRQEtacCzWoWazbeOO9O9h7JgstBn86vHfbwacE7Mc8pA/Ujsz14b SR+7I0xmgP5O7Gfys8d8tBpwX1WwvbwI3hU33/V5ZqCLIEfbLOwN+oIa8N86G2rPzXd0BhVVobW2 PQdv2A9WA/6fdoFtQX10OipjRox7H5nOhv1IDbo04EPZGeodUHt5uxy+qlWHtmD18phjmW2tj4f8 0wE/EmwGYAbsKuxR/lBlAo0FN1pn9zFls/SxoH8q4Ctg74B6F+jVd+XVd9w7wK5AH+Whba2PA/3T AD8a7CzUmfOiMqDtrBjn1nlVsFmnb9CL+iTAvbpmwEb7IoAz0O8M3StacWwmze7X+9B+vQ9ts/ve Rv97dQFO0G6wI7dlAGfPsa6PyofqhPLZxl9xbZ3OdgC6bI+gvOM8PQTxhiTscOXWemcHPwPsCFRr e7VDQOX00owqs9sZYK1t5hjresxap61tdt9t9a4OvgJ3BuynykNAV+H30lbZUB1ZISA8994BdQT4 l3Aursutz/Gukbn+bfRuDn4G2BHII9+CfxV6b23VEeXNsho1M+bNuq+3iPwDsXe8tY8pF6rnR7j5 OwHOwh2F4xHYkUtnF+YeXtm8+lXEwh05dwZwdkHX88qG6qTTWm8B+buE6KhRV1y7AvZw6yfYX4Ud bVvrqL6ePHc70rmj5cvIG/Wy8pk6PlRa11eM426ruzt41bU9WOb9T7BvBjuTX4WdKbdVV3HyUeP1 3C7r4DuA9vJl2q/vL2D9UW5+Z8CzcDNuPae9xQKYzUPHWPfWeV59dNraRjrSwRGcEcTWed61ZNov YpfFqw96FlH+pXXXEJ11qcj9MlBbwD7JfRVnR2XUddD1Xu20M3Cj9Lw8Qb6G9eFsf6k8BPp8L7au 45pDejvKv7Tu6OAM3Dq9ArUHLwI8A/eqg3vpiqIQlnFwHT5XXDubZhZx0l7dhci/pO7k4F7DtRo4 44IZh47AjvIY2K1yWeWO6oyejSWrwVrhK+PiVt7sqhrIp8p/Gun5HfhIR44+xuQZaTf3nFzAvsvp Lg7OuPa8jYDIuDUDMQu6B3UEulcf7xlUhcakK2F6xr0th47WKI91dKsO3jOJ8i+jOzg4A7dOM44d uau3jo5Zgdsqrzhr9IyyoHtOPqezofrIj9z7MeXrvHn9ZaznfagM2tlnhx7nW2l97CyUfxldHfAM 3AzUFcfOgB2BvuLg3pp9VpYYd/LgHusI8BnceWHBHutxnIZewzg7+pCe8POUCdkvC/mVAc/CjUCP nJt1aBZ0ZjZ93qfLatUnAroK91AG8jnNhOkiv8G1AJ8h19DP+WOt0xbsVnnQ+Hx2bp13W8ivCvgK 3BbgDNQR3FnYEdzed9StOlhrLy1EvhY7xqw6+WPKY0J15OYaZg22Bl+H8V/T/VjYbw35FQFfhdtb 0CQZgpiFPAM4Wqz6oHp7aS/PEzMGf4B8vfbCdcvFdciN1jP8FuwaclS+sc96R4/qe0vIrwb4EXB7 M90eyEzeKuCoHrqeVt3R86nKukbk4FYeCtMt2C3oI8C1m38Z22Jso/J5r9RuD/mVAK/A7QG+AjYL uYY9Atsbc4vKQ9vo2WjtcHDt2KyDj3U0JvcAtybTtHujPA987eTzECGSB/ysy0B+FcB3wu29qmKh XgnRI+dGdRCVp/PRc2HyGc3n6sbpgT4DOPJ049ewz0CjUH2kLdDnxcrTUM/1GHkabgT6XDf0bC4L +RUAPxruCtTzOX+Mc1FUgBoaKreVRnVH21F+RWyjteC2wLYcmg3V0Xh7PPO/wj13DfzYnmfpRaWH LMhv4eSvBrwKt5XngefBi7YjB4/c2yozA3UF7mjfTiHI57Rei/jj8TlPf3HFWj+C/KitzLDP6UzY fgsnfzXglrJw73BtC+xMeI4c3Cu7tfbSKO8osGeHmqXdzDs/gt0CXDu3N+EWwT3LeyU2H4Pc3Ko3 O/H2Mr0S8KjxRoBkJtEQwB7oVucQuXYFbpTHbFtaBR6Nv+dtrxEzjj7WKDyfHRy5+fzsdZiuy+Mt Vjg+1trNq5C/DPxXAX4W3Bm3jsbirHN75fbWVt2RjnLt6Np6km0+R0+isffSTj7neZCLSuvxtTc2 9zS7uOXmt4L8FYC/Cu4/IJ0B3HNsrzGxrh09m0i7wEcN0bq+hp51eM/N9XU08A91PnJlD2zvWb0N 5GcDXoF73ueNt+dtBLDO90BH114BOwLceiaZfbvEuDg6NuPg+joW6E+VZzn5OJ9xbGvbamv6dZoF ub7e5SA/E/Aq3NYH5o2RPYg9oP+oa6AIYQVsBPWrgc7IAhrtn2FnG7YFOpqUG8d7bi7qON2uLOly ZibfLgX5VWbR0UNHUFtwZ9yaCdEfKu0Brsu+AvYq0HNjz0g3zMz99HX0PjR2Z67tAT47bTQsyHSi 1oy7hlxDPedVn+V2nQW415ARIJFze5AjmBnINdgW1E+jnKhOuv67oN7t+qgTGmIbq9fwRx5TPg3I DPMctut9XmQlYn9erPSfrmrNdUOvCOdyHN4BnAE406CRa1vOaYXREdx6vWtSTYy0tWafA9Kqq+8Q atDMOcjVM/X/lt/jcStctxx2vk71cxj3H5CL2E6PQvOXQP7qWfQIbMutPQdHQDOTa5Fzj21dVnHW Om1tI10B6kiWW7PHsaAjULSb6zLoMTr6HKLnPMo3w62/J4/O0+U/xbVnHQ04E0YisDXIc17Grdmx twZ8xbmturNh6V2VhT0L+jjWml2fv5AyjkPgrT5jDbcHuUg8Hj8U+iMB90Ih5IQ6T8O+E+7oj0i8 xaoDqjfTaN9NDOws6Az4ekwevcpDeRnN43AvQhl5D8GwHwb5K1+TRWBHE2keuGx47oXlGnRdZs+9 re3oebyrNMjR/mzoPru4yE8nH9LheiSrrKj8aHbdqo9Mebd+TeY1dgR6FKIzoFfC8wjsrGtHjfJT Fbm6BUbGzQfYM+jjOsyPOSChqGDkzWNykd/lQ2BryA+B/s/uC0o+NEehOAJ7htcC2svz4Nbjb+Te yNFR3Zl9nybPSa2oTpy1d23v2Og4Blh9PUantpEzX5NZoOhty0m9cBw5OLtYjj33/CzMDXZNyLWq bj6O05NuVWdkztcuPofrlfH4Vu12cCY0twBCbspMokXuzcCt8z24Peh13RvuWOwztBwXpVkXZ8rm qfKtv2gCcGub2Qn4SmgejbUR2B7c7LgbheW6bLqODfZeZcJ2dDzaZsJ6dBwbqWV1Shs5EnAW7hls FJIzjs26dwS3LqvI78bENMRWTSzkCNoq5CuqhtlsHcraNQZnCoQc3nNy5OrZ75dnnFuMdFTPBnuv xvNE4aw3Nrc0xsXzWgu9WrPS3yr9nLZHep5Zr7z3Zo4JtcvBq+7tgeyF5V6ojkBvuO+nbMjunRc5 edZFvQ6BvYZXni3aAbj3YLyw3AIcfTuNgdwCW39breG+n46EfKTZP5phyiXE9dj7LLevIwH33Dsz qbYCOHLwVbgfIL91jNDz3gV5dO9I7Ou41Xfoaa0CvhKa7wzLmdB8J9yt12g35Gj/rEroXXFwduiQ 0tF/bGIVlgnVGXe3gNYdiOfaDfc9ZYXUc95Ij88KTcKNtjF/QWX+09Bxrqi0nmCbl6f8nnSz2tdp 30tfcfAV90aTa144XgnNdYfBwM2Eg63XKho2sR02s29WNGNvdQL6+syf0m5z8V2A67S3eM68Arfl 5paT6zKKsfbq2rqGos8qgiU6btfXXJnjDjOUaoheAYGB3usAonA96lisckRlZva3XicU3s5huvUd 9vk4vZ7b5Czr/TdanlMatcXsX5WVQvmqg3u9Ysa9rddaGfdGoDPQ63p0WH5PsR00G6JbnQH60gvS 3BlY55zyt+AiNcCZkIdxaD1ZFn0t9Sn/RBxeWM68Emu430/R57czWpud1JuE89LaxVE5lsfiu2fR Iwdn4Ndw/jH2Zd3ae1AN93vICmHnPC9sl2lbh+h6VnwOwf9M13qqfV6YLmK3y6FtDq/HGZEi90bn WA9Pg4zG2RbUFtholtwqB6pPVJfWtcV+nsjdrbaE2l00Z+S1dRG7PVplXHLxbIge9XpseJ4Zd6Nx ePRgo9C84X5PeZ8ra0g7pSfnTlUmRD/CvTNOboXxbHjecH+WvHAdhej62DlMF/kZds8huV6sn1XW of1cBqusqMxe/Uzt/HPRzIJCGC8UQuGOBTEbjjP7WvcUA868PWR9+0y33RlY658hWEBH7dXSsuOv vgevunfk1BrgaHZcj2+sMuiyo+3W+yhyvvHZW3kztLOb6wk0a1JNO/oRLk6JBTyC4KHS1jbr7MyE ReTcmdC89VliQ3XkvF6Y/hUcby3666zoCzCoHq52hOhWqGHBiMbezFg6M4GWcegG/v3FuOO8LfIT fA9yDW7Fxcd5X+q+ZdeelX1NJvKz4t7+kfagZdwbdRQIcjG2rfI23J8jpi0w7ZZts9F5Xrv1yp9u s4yDRw7oOSmzMA/FG39H5Yjq0PpMDXec11raoUV+j7lnB9ZOboXs3uKVw6sDVDZEZ9ybgTmaTIte paEe0Cprdl/rPeXBgPZpAxlpa2JtTlsz6jpM99qy98cmIdSzIsAjENADyIQo2ffZzOLVoeH+XGk4 rG10nte+rTaNYM+4OAO0u78yBp8vPK9H2gLKexCMu+vXYJ5zo7K1WpaYtsIAnn3z85Tf99Tterkd V77JxoTELMzsQ6i6t1fG1meKcUSUPzNghem67Wr3jtw8ekU2OzwVpnsOzsCiwYoAtcBmQG/3bh2p iovPeZ6Ree2faeeMcUHt/EUXtqCMa+t93j3avVtZrbq45b7Ru/HKjDpbZriPHYNHPRwLvAd0JhzP lrPhbmmhNsK4ONumM0BH5cuU81+tODjr1LsXdK9Wa6esNsXMgmvQs849O7guQ/pbbcjBGZfUedmK z+sK5Khc7d4tVlkXr7TVlbYelTfcl3lNFoFl5XkVZh+MVeF279YZYtvfSpv2OpUMc6YYwL1ezgN5 pbfz3PiQB9H6WGWNK3L33V/Yinhwlf2ii3Ujq3eb87O9GaogA3YD3VoV06YybTbb1vU9dDlSbdwC PHMBVKAdPRazjy1bq+WJaUtsO93p2EzZ3HpEDu71GrsrGn0dFVW01LO1Wo6iNhUZW+UVGevsbBlF pBaiR+5p7dcVZ/7sE12vgW6dLavNoXaKgLXaPjoXlYGJXH9odRa90iNVnF+MdLasrZYntk3taMMV F8+U9V9pwDNgsL1NdrGuje7Vbt46SlHb8vJ3gRzdKzy28ppszqtA61UUXdu6b6a8rdaq2AjWymfz MqaH8n6o8tdkjHPr7ZUQRl+3AW4dpahtIdNZhVdfK1s+eE52DG5VbE4zLp2tXFSpBr51lCL3ZPOz sCPOvPuayv41GbMvCrutY1DnkFXD3lrVSttj27deVzigyln9yaZszyVgjSpvXQ85f6t1lrwQfd7W x0YMWPew7p3WDDh7AbbnyYYjTLifLWurtUuReXkg62MiLiL3p8sa/bloFiwEJQtxFtwGvXW0Km2y Cn/1fvC8zBicHQ9Ue63oukwZW60d2tXuqtGsd92UGa68B/d6pmjcEV0PVaAhbr1aO9pvhpklHnb9 f3DrhhHkbE9UDd9braM0t8XoxxsZw2Ocu6TKLLrXg1nHsA5ubTO9YKt1tCrtMePgVnpLBHv0fzbx QhAvr9W6o9h2bq1FMD9lrf6iy+6eLcprta6obJvO8mN1EJQG4DsAs8YUUUUa4ta7Kxp+etxU7/Fv XuYnm5ibMmPvaMaQuXalbK1WRittMdPm9fWynLmqviYr3Yy8xqGziq3WRh3dbrPs/Tq+8scmTE+0 u6fq0L71akWhNntudviKIlyKgR2z6F6B0HrnWKPVOlMrc1Ne3ti2hqrlds/+quqVdYcytu6p3W1r ZX4re00RWXPw8k2DY6vu3mq9SjuGkoe096MA12KgjWbRW607iH0bdEpb3wH4jldbDXbr3cS270Pb /lkOLtIQt1pZLTNT/aqqt79BbrV8HTapprXLwbMhSHcCrdZvbR+2nhmit1qtk7UL8G+1tvZFea3W p+sbpMvKAs7ctOFttXytMJI698wQvcFvtXJaZmYH4F4h2H0Nf+vdxLbvQ9v+WQ7ujdHnYxr01t0V tWOGhW06CvBM4fWxpz6AVmuDUJtd4WCLIsDvANkdyti6p3a3LXS9wybdVhw86q10rzavqy7dMLde rWqbtcbkFjNWiF9u9yzgunARvN5+65rRfbdVuNUqamUo6cEdtXHLGNn7UoBHF9oBG+pAdl2/1TpC R7fbLHu/jrcAXxknsD0Vcvkdr9xarR1aaYtnRbahBuA7vk7qjbE71G59ql41N/UtUv+qKgNq5dgo r9W6orJtOjI+va8M/+osujXuQGG6LqSX12rdUWw7t9YimJ+yKoCj3gYVLNNboXPYfa3WEaq0x4yD W+ktUe3u/w+OCulNOmRmCvuHIlpXUKbtMg6+1bVnVV+TRQXPTLRZ19vWg7Vam7Wj/WaYWeIh80UX 72JRqBEtzHWZMrZaO7Sr3WXbP+PkbPQgIhjwzLgCnReNw3WPRRc6UZ5Wa1VsG2PbNuve2fKZ5z2N AzMXRKF6pdeKHpBVhlbrLFltMBqGMtGs3oeOtcoQlrX6mgyNB7IPwauA1RFUXL7V2iVkUMiwWPe2 7mHdO63KH5tE+zIV83qzihr+1qpW2h7bvvW6wgFVzpUfXWRCDL0Phen6HHRPK7+hbh0lr4157TUy vYgJJpKl5AFuFdLK18egsJqtGJPfah2hqG15ITrTliOTi8qQZnLlPfhYZ3ulCFwUFURlYva1WlV5 bs0Y0monUGrXGvDMRRgnryzWtdG9lirfajmK2paXX4lUd5nWj2MzY3C2B2N6p2i/dzwqS1TWVssT 26Z2tOFV8On2XZlkY3oby4G/ReRLrb0Kouu1a7fOltXmUDtFsFptH52LyhAd80vsr6p6vUimF/MW XXEEdqaMrVZFUZtCoFttedXdUTmodp/5ySZLUUV3LtZ12bK1Wp6YtsQCuauNs2Vz67HjF11QgTKO zT64qEINdWtVTJvKGhHj6PpeHle0Kq/JrJ5mVw+mH4RVFgb0KL/VGsq0nahdRjCvhO5WmcL2vTqL jvI98LOVtICPnL3V2qFshLnSrg8xrujPRdl9Vaeuwu6VK93LtT5WqK0wbeyMth6VN9xX/ckmfbGH 5AtfXca9tPrnnFo75TltFu4VV4+MzVX2r8kyIUPmIYxlxcG9craLt7Sy7j32Zdr0EW7NlPNfeQ4+ 3JLdl+3xvuSfDsbKf8jPqMC6hyXPxb36tD5LERwVd0VGVYE9A7y7b9fvonuV9iprbbMP1iuXBMe0 WrMq7m3lZdt/pgMpKTMGHw6InHDOR5V9qPRz2tZubjk5A3m7eMvTLveeJ88saCMjQ98D8cqYNq8d /x9cF0zfnO3hvsQPc9rFW0co495z2mrLVvtlolLrPmzZXEUOHjne7OoieDb9i9g3O3omhLE0l1nX oV38c2UBpbd3LBXQUduO4Hb3Z1+TzUCjMH2sI5gtqDXs8/bcScz3EKcsmUnC1nuLifisfC/y/DLS KCrVx7OursuYcnMG8AgUrew7cT0et1x/pMdapuO89+JRh9T6XGlgIje14EbuvDJzzgIvwT4RWfvn g1FPM9JRL2j1dux4HD0I68FE2633FdMWIsgybTY6z4PbK3+6zf4hj9Pu9wBrK/0Ax3vLE5yLlsx9 o7q13ktZB4wg1w49g/1XfKOKvrYqRnpJ7Bg8CnHn/aNQ3iuzaLHG6nO+Ph6F6TLtQ6F6VLfWfRUB PNaZcJl988O691wuvZ2t2y+xDi7iu7jnqsi9vXOHi8u0ns/T56Ly6GOjurTeWyg0t/K8cfWc/jut s+6NymCVueTmu/4/uDd2sHpDPYE2z5g/1THWZBvqbbWTs6/H2sXfT5nQnHFuBDpydca9o2VZGQcX 2evi3nmZ8ba+TlT2Ho+/v1ZCcwvm6LUYs+x0bxr+nYB753hAo3ym02Am27zyNuTvpyzcetsbS1fg Rk5/uHuL5AEXOc7F0TX0GNwbX0djfrQd1bF1D3lwz9vWZBaC3APbG3uz4XpUl7J7i+wH3DsHQaz3 z5NrOi9y60wY35C/lyK4vXF3xbEH3GP/XyMPfRkmuv82VQAXqbm43i8gzYbn6L76GK/8Dfl7iIWb gRqNwZE7R+E5uu7h7i1yDODROWyYnRmD6/tky6PzrONa19QOuNG77Qh0tgOwHPpw9xapAy6Cwci4 eMXNrWOtc1C5rDpEHUJDfk1FQKBJNZ3nheh6jB0Bb4XnHsisS5fg3wX4vB3BgKAX4SC3ruE5L+oI vHK3k19fWecWta3dO5r9XnHxCHTLvbe4+QrgInlHzLhuJjz37hMdg8rbkF9XFbiZEJ0B1/vGmhXu RxNsurxW/cqwHw34SDOObZ3PuncmjcrfkN9DO+FGE2Es0JHjM+Ps7ePuWauAi9RCdQ9gtB8dz4Tq TCiPyt6QX0e74F6ZQGOgj8b3KEy36rjUARwJ+EijUFuCbWZcjs5BZbGOYY5DQDfo54iZeMrCnX3l xbq35+DZ+i1rB+AiNRcf+1fH69k0KldDfk0dBXcmNLccOxqL62tXwvVl8I8GfE57UFngitqHjovG 86gcDfn1dSTc2bDbmyW3Oo5qSL5VuwAX4Vw8GnOj9G6XzkQYURod36qLAXvetuDJwM04d+Y75xp0 pn6HTL4dCficx4IUdQDRuJy5bwQ5W4+G/BhlXXusV+D+Kz7EDOQ7J9a2aSfgIntCde+6Hujecez1 PGU6BPaarf9UdW2Uzjq3BvmvkWZD91WotwG/G3CRXKhu5TP7rWMyLs7sR/eM0t75rd9iG7pOe+G5 NdEVuXI0kWbtz06knRaaD50B+JzHhsOZiTl9XCacjsoSHcu6efb6n6CMg2VC8kpojtybOQd1KFaH dOoEm8gxgItwoXp0btaho4m2lbF1lFep3ydrh2vPeRbYGbgtF0fOHt2LDdGzz6WkowAXiSHXwOrj qiE2c/7I0w8UgfoN8plyIH0a6FHjZVx7rL3xtgW2htwDOTPmZsBGdTw0NB86E/A5D42lrX3M9b1J OHQtFlRGmft4576jqmCPNOPaKDSfQdTQMm698o8MrDqwz2SbjgRcJD8ez0KXhdy7lvXQs3CugM4e cwcxDZhxN3bMrd2bnVhDDs5OsHmOnRl3Hwb80YCLrI3H52POgNw7BoX1bJky984cdxWxjTQL9lhr WNB42AMcOXQF7kyIfuq4e9YrANd5aCxuHR9NpKH7MfuY+2tFH05l8i5z/1erCrXOy463mXG3t2SA ju6Vgfu00HzoDMBF+Mm0CM752G/n+Mo4fkh/CKjsmQ9rF+ir56yo0jhXwB7rGRYLKMa5PYiZr6Na QCO4q8/iEJ0FuMjaayrr2J3jY0vo4TOdAhITbayCG3V+SOOc1UbHNGQW7DmNwGLG3AzMq/8ZFJWd fSaH6EzARXjo2Fdos77BPjaER2Psb+OYVZ0xrDhLGddiwB5rb0HjYP2b5AjaCHSrs/BC87l+Lx93 z3o14Dov43DzPu1YTOjuHTeuaaV3KOo0rgx8NQxlQ3NmyYy3M279d7r2X+NekWt7dX2JzgZcpAa5 5/RjHT3IbIhuKRpnWcdnjlkN2XfBv1rHqKEzoTgC23LTCujMzy55Y++5Lhm4TwX+FYCL5CH39rNj 8hVlOg+2wUfnXtHFGfeuhOWeI6LZ6+qSHWsjuFG5db2tZ3GaXgW4yDrk83Y0Ns++joo+nOiDqjpg 1FFU3t9nlY06vO0oLPfAjuDWoM/b7FdNrfH228At8lrARfZCbol9qOx7bi/kjBq9zq80gir0K2Lq xYTien0U3FW3tgDXaa/s7PM5Va8GXGQP5HNe5hVY5JhWPmq0I+0BbB3vHcvI6lx2CF2XBTyCGi0R tCzckVNb5yP3viXcItcFXOfv+MZX5UF/iz2Bpz9wfX3vXqzbRdc5WtkOb05XoUaubbn42M7+WGIE tgW3VR9U90vpCoCL1CDPnMOEmUiVBl25HhsJsOCtqBLNRC6XBZ0JuT1nZt3/SLhfDv1VABfZC7l3 XhYYL+zyAEeNmLmPPjba1vnVaCW6rrXNwpsBGYXeGZiZMXYE9q3hFrkW4CJ7w/XoeAb0KI8B3RNq KFHHIUa+de3M4l0juqa3T4NjgWTByP6zAebnjCtgW3WTaa3T+rldQlcDXCQPeWUWOQILHTtvZ4Bk oIquy6bZzkWLcd1sp6EBPmJBIKOxdqYuYqTFSOvneBn979UFMPQt8fvskR4PU0+Ejf1jef5//teU J9O545znlB4N4Qm2H07ew0gzixhpa+2lhcjXYhpr1KGNtdexiWAH12k0Eca4M3LsKJpAdfCehRD5 L9MVARfZA/msGewB/Phwn2qN8ub7aZhn0Mf6odLWMjqUCPIrAx7BLeI7pgWdB2gE8o5w3KqP9RyE yH+prgq4SA3yIQ92kd9OPq81wE8jzwLcWkcurjuerJOzQxV2HgLt8xx7rD3n9pbIvSuge64dwY3q qNPoWV1KVwZcZA1y63jLQQdk31MeAhsBrsP0jItHgFfhZt17yHp+LORVwJG7ojEzE34joL1w3AIc 1d97RpfT1QEX4SEX4UP2IctB53P12Hpsa6DnMH3uOKqQS5C21gK2s9LPfOZt+QAAA65JREFULOPa c3rFuTPAVx07qo/3TKL8y+gOgIv4kIv8BJ0J2RlH13DNzq1BR2H5nPel7sM4NwM4ytP7kDznjhwc QW3lMe5ahTjajjqjqM6WLg+3yH0AF/kNs96XCdmRtKPPQFvgorB8zrOg1vkiv8FmQ3UvXRFq4Ahw D2gRPmRmAa687mIA9+ouRP4ltdoYXiVUbhSuIkCQa6JFO++T3Mfk7wrTjwCcce85HS3Rq7II5EoY HtUBPQMm/7K6K+Aiftk9d2PgyYKehdw6xrq3zhNnrdPWNpLXwCPIEdwjj4GRAT4DtgRpa42eRZR/ ad0ZcJE9kOv1vN8Ln3e49JkOrvOZhnyUg2dA9/Jl2q/vH5Ub1dXSLeEWuT/gQ2yjZkD3nBzl7wJc Xx9tW+uovp52O7jergAuwk2WRc6t86L6Mvm30bsALlJ3c7TeAXoF6qMcnNVuB0f5lYW5h1duL611 e7hF3gtwER5yvc3AUwFzp2tX4Y4+Y6shVyGvurnIf26Njrfy2fJZ9Xx7uEXeD/ChM0Cf0wzc7PHo HjptlQ3VkRWCQIOSdXKdZx3jHavH2FbZGmxD7wq4yBrk7DrrwBmX9tzbKo+XZhSFsSgvA7vezkYA VnnYcNzaZvfdVu8M+NAZoI91BVgUNXh51v1Rnax9mYbOuHiUt9ohZNZeHSy9JdhDnwD40G7QdR7j 8KvnROXQ6Yp2Ozmbx5xjlaPBdvRJgIvE9c2AbuWx4byXl1lHZa7Ig6TqqhnovXWUh7a1PgJukc8D fOho0K28DNjZfajcVbFhenYfA3UlD21rfQzYQ58K+NAK6PP2TqdnrsOUjdlXGYuj9IrTZ/KYba2P A3vo0wEfOhJ0lM66daYcq8oAVXX1zHXYcml9LNhDDfhPZUG38iqwV9JsebKyoMgCvpJmIGbA/Xi4 RRpwS8wzYcFixsorDn0FB4+2mTEzC3E7dlINuK+zYWe2vXIdBbiXX4V/F9TsMR+pBpxTFXSU77n2 ah6SPjYDxQqMnoN75WiwN6gBz4l9XtkZ7dWx9VGfY/aLIuwk2ArUmeM+Xlf810V30VGwi+Qb8BEN PjvezXYG7H2yx7UmNeDryrpnZaZe5PwGvgLlDqCrx7cmdYi+V7thr163ck4FpKPct6HepAb8OFWf 7VGdRFVnwdlQH6AG/DytPOurfk4rUDbQJ+iqDecTtPvZ777ebgAb6BeoAb+O3u2zaKAvoHdrVO+o q39GDfKFdfXG0/J11ufXELdardbV9H/arImcjM03LwAAAABJRU5ErkJggg== "
       preserveAspectRatio="none"
       height="39.678001"
       width="39.678001"
       y="49.551746"
       x="22.576315"
       style="stroke-width:1.34834" />
    <g
       transform="translate(97.856035,23.734908)"
       id="g1227"
       style="stroke-width:1.34834">
      <circle
         style="fill:#323232;fill-opacity:1;stroke-width:3.0829;stroke-linecap:round"
         id="circle1215"
         cx="-55.440792"
         cy="43.816551"
         r="16" />
      <g
         transform="matrix(2.5173702,0,0,2.5173702,-76.756491,22.856366)"
         id="g1221"
         style="stroke-width:1.34834">
        <circle
           cx="8.4673996"
           cy="8.3260002"
           r="2.7781"
           fill="none"
           opacity="0.5"
           stroke="#ffffff"
           stroke-dashoffset="0.42096"
           stroke-width="0.713482"
           id="circle1217" />
        <path
           transform="scale(0.26458)"
           d="m 31.895,10.453 c -0.99322,0.1008 -0.97729,0.94165 -1.2988,3.0137 a 18.128,18.078 30 0 0 -2.0234,0.27148 c -0.93144,-2.1393 -1.2491,-2.8802 -2.082,-2.582 -0.94525,0.33839 -0.71758,1.1543 -0.53125,3.2695 a 18.128,18.078 30 0 0 -1.8438,0.75781 c -1.3375,-1.6165 -1.7511,-2.3476 -2.6562,-1.9258 -0.80052,0.37301 -0.50871,1.1236 0.33008,3.291 a 18.128,18.078 30 0 0 -1.6133,1.2324 c -1.6938,-1.2042 -2.2852,-1.7974 -3.0469,-1.1582 -0.67022,0.56246 -0.20182,1.2108 1.1406,3.0469 a 18.128,18.078 30 0 0 -1.2168,1.5898 c -1.964,-0.67784 -2.6994,-1.0798 -3.25,-0.25195 -0.47819,0.71902 0.14321,1.2126 1.8945,2.5547 a 18.128,18.078 30 0 0 -0.80274,1.9727 c -2.0338,-0.22587 -2.8377,-0.44809 -3.1895,0.47461 -0.31329,0.82174 0.41681,1.1574 2.5078,2.1191 a 18.128,18.078 30 0 0 -0.27539,2.0957 c -2.0032,0.27364 -2.8305,0.26096 -2.9453,1.2363 -0.10322,0.87682 0.68769,1.0204 2.9707,1.4453 a 18.128,18.078 30 0 0 0.26172,1.918 c -1.9286,0.93001 -2.7498,1.1477 -2.5566,2.1367 0.16849,0.86268 0.96569,0.76157 3.2461,0.47266 a 18.128,18.078 30 0 0 0.7793,1.8926 c -1.6564,1.4018 -2.4032,1.8154 -1.9668,2.7305 0.38215,0.80144 1.1297,0.49552 3.3164,-0.37305 L 16.8403,41.32213 a 18.128,18.078 30 0 0 1.3887,1.8516 c -1.1709,1.7452 -1.7562,2.3533 -1.0938,3.1016 0.5735,0.64783 1.2106,0.17327 2.9648,-1.1816 a 18.128,18.078 30 0 0 1.6406,1.2637 c -0.82406,2.203 -1.1155,2.9564 -0.30664,3.3223 0.90812,0.41078 1.3177,-0.32432 2.6309,-1.9492 a 18.128,18.078 30 0 0 1.9277,0.79883 c -0.30059,2.2277 -0.39986,3.0196 0.45312,3.1934 0.97957,0.1996 1.2119,-0.61003 2.1387,-2.498 a 18.128,18.078 30 0 0 2.0137,0.2793 c 0.33128,2.2608 0.45023,3.0532 1.3242,2.9844 0.99226,-0.0782 0.99658,-0.9182 1.3613,-2.9688 a 18.128,18.078 30 0 0 2.0898,-0.27148 c 0.85275,2.0297 1.1743,2.7548 1.9902,2.4746 0.92926,-0.31904 0.74117,-1.127 0.58398,-3.1445 a 18.128,18.078 30 0 0 1.8398,-0.74023 c 1.4759,1.7254 1.9984,2.3293 2.6992,1.8066 0.78265,-0.58367 0.36734,-1.2938 -0.38867,-3.1406 a 18.128,18.078 30 0 0 1.7012,-1.2891 c 1.8457,1.3068 2.5,1.7649 3.0508,1.0879 0.61716,-0.75858 0.03843,-1.3471 -1.1504,-2.959 a 18.128,18.078 30 0 0 1.3008,-1.7129 c 2.0151,0.83598 2.753,1.1214 3.1348,0.35156 0.43682,-0.88095 -0.26592,-1.3217 -1.7988,-2.6484 a 18.128,18.078 30 0 0 0.76758,-1.8828 c 2.2224,0.24023 3.0152,0.31421 3.166,-0.54102 0.17125,-0.97123 -0.62973,-1.1939 -2.4863,-2.041 a 18.128,18.078 30 0 0 0.26953,-2.041 c 2.251,-0.35026 3.0414,-0.47741 2.9648,-1.3496 -0.08693,-0.99057 -0.92511,-0.98842 -2.9746,-1.334 a 18.128,18.078 30 0 0 -0.27539,-2.0254 c 2.0691,-0.95238 2.7945,-1.2914 2.4824,-2.1094 -0.35067,-0.91901 -1.1516,-0.70218 -3.168,-0.47656 a 18.128,18.078 30 0 0 -0.80078,-1.9238 c 1.8169,-1.4054 2.4529,-1.8976 1.9629,-2.627 -0.56399,-0.83953 -1.299,-0.40984 -3.3379,0.29883 a 18.128,18.078 30 0 0 -1.2383,-1.6035 c 1.3317,-1.9164 1.7947,-2.5747 1.1035,-3.127 -0.77518,-0.61937 -1.3517,-0.01639 -3.0078,1.2227 a 18.128,18.078 30 0 0 -1.6504,-1.248 c 0.83744,-2.1442 1.1301,-2.8932 0.33594,-3.2676 h -0.002 c -0.90288,-0.4229 -1.3213,0.30742 -2.6641,1.9199 a 18.128,18.078 30 0 0 -1.8769,-0.76172 c 0.30078,-2.2865 0.40608,-3.085 -0.45703,-3.2578 -0.99238,-0.19873 -1.2107,0.62629 -2.1602,2.5684 a 18.128,18.078 30 0 0 -1.9941,-0.26562 c -0.39035,-2.3018 -0.51998,-3.0972 -1.4004,-3.0078 z m 4.457,6.3613 c 0.63326,-0.08674 1.6386,0.308 2.6914,0.89258 1.7546,0.9742 3.6383,2.4759 4.1406,3.1543 2.4043,2.574 4.1587,5.767 4.2598,10.898 0.0189,0.95565 -0.07083,1.8215 -0.29492,2.5293 -0.24375,0.73958 -0.73754,1.4784 -1.5137,1.8379 -0.64353,0.27062 -1.3584,0.46298 -2.0234,0.15625 -2.0718,-0.95061 -4.6774,-2.593 -6.7676,-3.8301 -0.35162,-0.20826 -0.60729,-0.5463 -0.64453,-0.7168 -0.39638,-0.75244 -0.32113,-1.8502 -0.87695,-2.4922 -0.81263,-1.1545 -1.512,-0.9824 -1.6934,-2.1133 -0.08504,-2.5145 -0.10265,-5.0575 -0.03711,-7.5352 0.0037,-1.7193 1.2398,-2.7302 2.7598,-2.7812 z m -8.9121,0.08594 c 0.5266,-0.0292 1.0768,0.05697 1.5605,0.31641 0.09215,0.0494 0.18084,0.10545 0.26758,0.16797 0.5516,0.42788 1.0698,0.95558 1.1289,1.6855 0.18845,2.2717 0.03653,5.3475 -0.01563,7.7754 -0.0087,0.40858 -0.17831,0.79796 -0.30859,0.91406 -0.46107,0.71462 -1.4536,1.1869 -1.7402,1.9863 -0.60706,1.2746 -0.11344,1.7987 -1.0098,2.5117 -2.1492,1.3082 -4.3578,2.5718 -6.5488,3.7305 -1.4999,0.84054 -2.9869,0.26024 -3.7773,-1.0391 -1.0303,-1.3579 -0.37766,-6.7066 0.17383,-7.9395 1.0628,-3.3581 2.983,-6.4543 7.4043,-9.0605 0.82341,-0.4854 1.6229,-0.83029 2.3496,-0.98242 0.16713,-0.03294 0.34009,-0.05667 0.51562,-0.06641 z m 4.5645,12.652 a 1.917,1.917 0 0 1 1.916,1.916 1.917,1.917 0 0 1 -1.916,1.918 1.917,1.917 0 0 1 -1.918,-1.918 1.917,1.917 0 0 1 1.918,-1.916 z m 2.3242,5.4863 c 0.19131,-0.0072 0.40351,0.02788 0.66992,0.13281 1.1037,0.60362 2.205,1.2258 3.293,1.8613 1.088,0.63557 2.1614,1.2843 3.2109,1.9434 1.4779,0.87858 1.7183,2.4569 0.98828,3.791 -0.66078,1.5712 -5.6177,3.6814 -6.9609,3.8203 -3.4396,0.75861 -7.081,0.64302 -11.549,-1.8828 -0.8321,-0.47038 -1.5322,-0.98971 -2.0273,-1.543 -0.51244,-0.58639 -0.8964,-1.3872 -0.81055,-2.2383 0.09475,-0.69162 0.2939,-1.4042 0.89648,-1.8203 1.8731,-1.2991 4.6135,-2.7042 6.7422,-3.873 0.35823,-0.19669 0.77967,-0.24422 0.94531,-0.18945 0.84941,0.04199 1.7562,0.66316 2.5918,0.51172 1.0555,-0.08368 1.4358,-0.49202 2.0098,-0.51367 z"
           fill="#ffffff"
           image-rendering="optimizeSpeed"
           stroke-width="1.29608"
           id="path1219" />
      </g>
    </g>
  </g>
</svg>
