<?xml version="1.0" encoding="UTF-8" standalone="no"?>
<svg
   width="64"
   height="64"
   version="1.1"
   id="svg68"
   sodipodi:docname="meld.svg"
   inkscape:version="1.1.1 (3bf5ae0, 2021-09-20)"
   xmlns:inkscape="http://www.inkscape.org/namespaces/inkscape"
   xmlns:sodipodi="http://sodipodi.sourceforge.net/DTD/sodipodi-0.dtd"
   xmlns="http://www.w3.org/2000/svg"
   xmlns:svg="http://www.w3.org/2000/svg"
   xmlns:rdf="http://www.w3.org/1999/02/22-rdf-syntax-ns#"
   xmlns:cc="http://creativecommons.org/ns#"
   xmlns:dc="http://purl.org/dc/elements/1.1/">
  <metadata
     id="metadata72">
    <rdf:RDF>
      <cc:Work
         rdf:about="">
        <dc:format>image/svg+xml</dc:format>
        <dc:type
           rdf:resource="http://purl.org/dc/dcmitype/StillImage" />
        <dc:title />
      </cc:Work>
    </rdf:RDF>
  </metadata>
  <sodipodi:namedview
     pagecolor="#ffffff"
     bordercolor="#666666"
     borderopacity="1"
     objecttolerance="10"
     gridtolerance="10"
     guidetolerance="10"
     inkscape:pageopacity="0"
     inkscape:pageshadow="2"
     inkscape:window-width="1600"
     inkscape:window-height="842"
     id="namedview70"
     showgrid="false"
     inkscape:zoom="6.0546875"
     inkscape:cx="31.132903"
     inkscape:cy="40.381935"
     inkscape:window-x="0"
     inkscape:window-y="24"
     inkscape:window-maximized="1"
     inkscape:current-layer="svg68"
     inkscape:pagecheckerboard="0" />
  <defs
     id="defs12">
    <linearGradient
       id="a"
       x1="32.342"
       x2="32.342"
       y1="2"
       y2="62"
       gradientUnits="userSpaceOnUse">
      <stop
         stop-color="#ff850d"
         offset="0"
         id="stop2" />
      <stop
         stop-color="#ff2100"
         offset="1"
         id="stop4" />
    </linearGradient>
    <linearGradient
       id="linearGradient862-3-3"
       x1="7.9373"
       x2="7.9373"
       y1="15.081"
       y2="1.852"
       gradientTransform="matrix(3.7796,0,0,3.7796,-72.672404,0)"
       gradientUnits="userSpaceOnUse">
      <stop
         stop-color="#f1efeb"
         offset="0"
         id="stop7" />
      <stop
         stop-color="#fdfcfc"
         offset="1"
         id="stop9" />
    </linearGradient>
    <linearGradient
       id="linearGradient886"
       x1="74.341"
       x2="74.032"
       y1="15.186"
       y2="49.356"
       gradientUnits="userSpaceOnUse">
      <stop
         stop-color="#336df5"
         offset="0"
         id="stop899" />
      <stop
         stop-color="#42afe6"
         offset="1"
         id="stop901" />
    </linearGradient>
    <linearGradient
       id="linearGradient894"
       x1="76.747"
       x2="91.891"
       y1="32"
       y2="32"
       gradientUnits="userSpaceOnUse">
      <stop
         stop-color="#63c644"
         offset="0"
         id="stop904" />
      <stop
         stop-color="#96ca6b"
         stop-opacity=".98204"
         offset="1"
         id="stop906" />
    </linearGradient>
    <linearGradient
       id="linearGradient902"
       x1="95.889"
       x2="95.172"
       y1="17.085"
       y2="48.949"
       gradientUnits="userSpaceOnUse">
      <stop
         stop-color="#5da624"
         offset="0"
         id="stop909" />
      <stop
         stop-color="#6ba63f"
         stop-opacity=".9521"
         offset="1"
         id="stop911" />
    </linearGradient>
    <filter
       id="filter936"
       x="-.11782"
       y="-.099693"
       width="1.2356"
       height="1.1994"
       color-interpolation-filters="sRGB">
      <feGaussianBlur
         stdDeviation="1.4087092"
         id="feGaussianBlur914" />
    </filter>
    <style
       type="text/css"
       id="style917" />
    <style
       type="text/css"
       id="style919" />
    <filter
       id="filter1057-9"
       x="-0.026999999"
       y="-0.026999999"
       width="1.054"
       height="1.054"
       color-interpolation-filters="sRGB">
      <feGaussianBlur
         stdDeviation="0.61875"
         id="feGaussianBlur921" />
    </filter>
    <linearGradient
       id="linearGradient1053-6"
       x1="-127"
       x2="-72"
       y1="60"
       y2="5"
       gradientTransform="translate(131.5,-0.51000006)"
       gradientUnits="userSpaceOnUse">
      <stop
         stop-color="#dee0e2"
         offset="0"
         id="stop924" />
      <stop
         stop-color="#f1f3f5"
         stop-opacity=".99608"
         offset="1"
         id="stop926" />
    </linearGradient>
  </defs>
  <rect
     x="4.4999995"
     y="4.4999995"
     width="55"
     height="55"
     ry="18.126923"
     fill="#141414"
     filter="url(#filter1057-9)"
     image-rendering="optimizeSpeed"
     opacity="0.3"
     stroke-linecap="round"
     stroke-width="3.31651"
     id="rect931"
     transform="matrix(0.82749843,0,0,0.82749843,5.5200926,5.5200926)"
     rx="18.126923" />
  <rect
     x="9.2438354"
     y="9.2438354"
     width="45.512417"
     height="45.512417"
     ry="15"
     fill="url(#linearGradient1053-6)"
     image-rendering="optimizeSpeed"
     stroke-linecap="round"
     stroke-width="2.7444"
     id="rect933"
     style="fill:url(#linearGradient1053-6)"
     rx="15" />
  <path
     id="path18"
     style="fill:url(#a);stroke-width:1"
     d="m 21.656312,9.2438355 c -6.876511,0 -12.4124765,5.5359655 -12.4124765,12.4124765 v 8.640247 C 11.457829,38.934588 19.0125,46.3969 28.822578,45.335374 c 6.52408,-0.706237 11.741427,-6.909816 8.410745,-12.203986 -1.058286,-1.68189 -3.628664,-1.827759 -4.83731,-1.021443 5.807303,-0.163861 2.971946,6.754831 -2.130162,7.811132 C 23.295005,41.363573 17.944685,34.628146 17.462253,28.360341 16.73112,18.870532 24.0301,11.631216 32.588343,9.2438355 Z m 16.22188,9.9768515 c -0.333856,-0.0041 -0.681194,0.0062 -1.021445,0.02262 -0.350751,0.01646 -0.709921,0.0487 -1.066697,0.08726 -6.52408,0.706237 -11.739811,6.910606 -8.409128,12.205602 1.058287,1.681891 3.628665,1.826141 4.837309,1.019829 -5.807384,0.16386 -2.97356,-6.753216 2.128547,-7.809519 6.970845,-1.442494 12.322782,5.292931 12.805214,11.560736 0.673048,8.735923 -5.464952,15.556658 -13.120375,18.449016 h 8.312156 c 6.876512,0 12.412477,-5.535965 12.412477,-12.412477 V 32.399245 C 52.190763,25.234536 45.94394,19.324718 37.879808,19.222303 v -0.0016 z" />
  <g
     stroke-width="0.152049"
     id="g66"
     transform="matrix(0.82749843,0,0,0.82749843,5.5200926,5.5200926)">
    <text
       x="173.99921"
       y="34.218311"
       font-family="'Gentium Book Basic'"
       font-size="16.26px"
       letter-spacing="0"
       word-spacing="0"
       style="line-height:0%;stroke-width:0.168097"
       id="text22"><tspan
         x="173.99921"
         y="34.218311"
         stroke-width="0.152049"
         id="tspan20" /></text>
    <text
       transform="scale(4.0128,0.2492)"
       x="68.157654"
       y="93.381805"
       font-family="Arial"
       font-size="5.9077px"
       text-anchor="middle"
       id="text24"
       style="stroke-width:0.168097" />
    <text
       x="247.13495"
       y="24.15267"
       font-family="'Gentium Book Basic'"
       font-size="16.26px"
       letter-spacing="0"
       word-spacing="0"
       style="line-height:0%;stroke-width:0.168097"
       id="text28"><tspan
         x="247.13495"
         y="24.15267"
         stroke-width="0.152049"
         id="tspan26" /></text>
    <text
       transform="scale(4.0128,0.2492)"
       x="86.382675"
       y="52.988556"
       font-family="Arial"
       font-size="5.9077px"
       text-anchor="middle"
       id="text30"
       style="stroke-width:0.168097" />
    <text
       x="112.30811"
       y="1.346426"
       font-family="'Gentium Book Basic'"
       font-size="16.26px"
       letter-spacing="0"
       word-spacing="0"
       style="line-height:0%;stroke-width:0.168097"
       id="text34"><tspan
         x="112.30811"
         y="1.346426"
         stroke-width="0.152049"
         id="tspan32" /></text>
    <text
       transform="scale(4.0128,0.2492)"
       x="52.783707"
       y="-38.526581"
       font-family="Arial"
       font-size="5.9077px"
       text-anchor="middle"
       id="text36"
       style="stroke-width:0.168097" />
    <text
       x="250.46541"
       y="-25.889948"
       font-family="'Gentium Book Basic'"
       font-size="16.26px"
       letter-spacing="0"
       word-spacing="0"
       style="line-height:0%;stroke-width:0.168097"
       id="text40"><tspan
         x="250.46541"
         y="-25.889948"
         stroke-width="0.152049"
         id="tspan38" /></text>
    <text
       transform="scale(4.0128,0.2492)"
       x="87.213081"
       y="-147.82254"
       font-family="Arial"
       font-size="5.9077px"
       text-anchor="middle"
       id="text42"
       style="stroke-width:0.168097" />
    <text
       x="323.60114"
       y="-35.955593"
       font-family="'Gentium Book Basic'"
       font-size="16.26px"
       letter-spacing="0"
       word-spacing="0"
       style="line-height:0%;stroke-width:0.168097"
       id="text46"><tspan
         x="323.60114"
         y="-35.955593"
         stroke-width="0.152049"
         id="tspan44" /></text>
    <text
       transform="scale(4.0128,0.2492)"
       x="105.4381"
       y="-188.21451"
       font-family="Arial"
       font-size="5.9077px"
       text-anchor="middle"
       id="text48"
       style="stroke-width:0.168097" />
    <text
       x="274.64185"
       y="-95.393242"
       font-family="'Gentium Book Basic'"
       font-size="16.26px"
       letter-spacing="0"
       word-spacing="0"
       style="line-height:0%;stroke-width:0.168097"
       id="text52"><tspan
         x="274.64185"
         y="-95.393242"
         stroke-width="0.152049"
         id="tspan50" /></text>
    <text
       transform="scale(4.0128,0.2492)"
       x="93.237343"
       y="-426.72513"
       font-family="Arial"
       font-size="5.9077px"
       text-anchor="middle"
       id="text54"
       style="stroke-width:0.168097" />
    <text
       x="347.77631"
       y="-105.46015"
       font-family="'Gentium Book Basic'"
       font-size="16.26px"
       letter-spacing="0"
       word-spacing="0"
       style="line-height:0%;stroke-width:0.168097"
       id="text58"><tspan
         x="347.77631"
         y="-105.46015"
         stroke-width="0.152049"
         id="tspan56" /></text>
    <text
       transform="scale(4.0128,0.2492)"
       x="111.46236"
       y="-467.11832"
       font-family="Arial"
       font-size="5.9077px"
       text-anchor="middle"
       id="text60"
       style="stroke-width:0.168097" />
    <text
       x="117.17233"
       y="72.540764"
       font-family="'Gentium Book Basic'"
       font-size="26.212px"
       letter-spacing="0"
       word-spacing="0"
       style="line-height:0%;stroke-width:0.168097"
       id="text64"><tspan
         x="117.17233"
         y="72.540764"
         stroke-width="0.152049"
         id="tspan62" /></text>
  </g>
</svg>
